[
  {
    "type": "npc",
    "id": "angels_merchant",
    "name_suffix": "Merchant",
    "class": "NC_EVAC_SHOPKEEP",
    "attitude": 0,
    "mission": 3,
    "chat": "TALK_ANGELS_MERCHANT",
    "faction": "ha"
  },
  {
    "id": "TALK_ANGELS_MERCHANT",
    "type": "talk_topic",
    "dynamic_line": [
      "Welcome to our store. Can I get you anything?"
    ],
    "responses": [
      { "text": "Let's trade then.", "effect": "start_trade", "topic": "TALK_ANGELS_MERCHANT" },
      { "text": "Don't mind me…", "topic": "TALK_DONE" }
    ]
  }
]