[
  {
    "type": "npc",
    "id": "angels_tau",
    "name_suffix": "Tau",
    "class": "NC_SCAVENGER_F",
    "attitude": 0,
    "mission": 8,
    "chat": "TALK_ANGEL_TA",
    "faction": "ha"
  },
  {
    "type": "talk_topic",
    "id": "TALK_ANGEL_TA",
    "dynamic_line": [
      "What's your beef, darling?"
    ],
    "responses": [
        { "text": "Don't mind me…", "topic": "TALK_DONE" } 
        ]
  }
]