[
    {
        "type": "overmap_terrain",
        "id": [ "homeless_tsu_0_0_0", "homeless_tsu_1_0_0" ],
        "name": "The Social Order stronghold",
        "sym": "H",
        "color": "green",
        "see_cost": 2,
        "mondensity": 2,
        "flags": [ "SIDEWALK" ]
      },
      {
        "type": "overmap_terrain",
        "id": [ "homeless_tsu_0_0_1", "homeless_tsu_1_0_1", "homeless_tsu_0_0_2", "homeless_tsu_1_0_2", "homeless_tsu_0_0_roof", "homeless_tsu_1_0_roof" ],
        "name": "The Social Order stronghold",
        "sym": "H",
        "color": "green",
        "see_cost": 2,
        "mondensity": 2
      }
]