[
  {
    "type": "snippet",
    "category": "epilogue_factions",
    "text": [
      { "id": "epilogue_faction_os_0", "text": "    The Man on 'vacation' was never forced to deal with the realities of the void slowly pushing into the post cataclysm version of this reality, therefore had a fairly relaxing vacation. \n \n Upon returning home, he found out his much beloved cousin had been either turned mortal or killed(both really, if you think about it) - but he never let that bother him, and they lived happily ever after." },
	    { "id": "epilogue_faction_os_100", "text": "    The Man on 'vacation' was forced to deal with the grim and dark realities of like after the world ended, and therefore had a fairly relaxing vacation. \n \n Upon returning home, he found out his much beloved cousin had been either turned mortal or killed(both really, if you think about it) - but he never let that bother him, and they lived happily ever after. \n \n \n \n Some say he might have popped back to take a little souveneer with him..." }
	]
  }	
]