[
	{
    "id": "zombie_oil",
    "//": "standard drops for oil zombie",
    "type": "harvest",
    "entries": [
      { "drop": "meat_tainted", "type": "flesh", "mass_ratio": 0.2 },
	    { "drop": "oil_nodule", "type": "flesh", "mass_ratio": 0.05 },
      { "drop": "blood_tainted", "type": "blood", "mass_ratio": 0.1 },
      { "drop": "fat_tainted", "type": "flesh", "mass_ratio": 0.08 },
      { "drop": "bone_tainted", "type": "bone", "mass_ratio": 0.1 }
    ]
  },
  {
    "id": "zombie_oil_large",
    "type": "harvest",
    "entries": [
      { "drop": "meat_tainted", "type": "flesh", "mass_ratio": 0.2 },
	    { "drop": "oil_sack", "type": "flesh", "mass_ratio": 0.2 },
	    { "drop": "oil_nodule", "type": "flesh", "mass_ratio": 0.1 },
      { "drop": "blood_tainted", "type": "blood", "mass_ratio": 0.08 },
      { "drop": "fat_tainted", "type": "flesh", "mass_ratio": 0.05 },
      { "drop": "bone_tainted", "type": "bone", "mass_ratio": 0.1 }
    ]
  },
  {
    "id": "tentacle",
    "type": "harvest",
    "entries": [
      { "drop": "octopus", "type": "flesh", "mass_ratio": 0.72 },
      { "drop": "animal_blood", "type": "blood", "mass_ratio": 0.1 }
    ]
  }
]
