[
  {
    "type": "item_group",
    "subtype": "collection",
    "id": "spear_ancient",
    "entries": [
         { "item": "loincloth", "prob": 100, "damage": [ 1, 4 ] },
         { "item": "spear_wood", "prob": 100, "damage": [ 1, 4 ] },
         { "item": "grapling_egg", "prob": 100, "count": [ 1, 4 ] }
    ]
  },
  {
    "type": "item_group",
    "subtype": "collection",
    "id": "sling_ancient",
    "entries": [
         { "item": "loincloth", "prob": 100, "damage": [ 1, 4 ] },
         { "item": "sling", "prob": 100, "damage": [ 1, 4 ] },
         { "item": "grapling_egg", "prob": 100, "count": [ 1, 4 ] }
    ]
  },
  {
    "type": "item_group",
    "subtype": "collection",
    "id": "sword_bronze",
    "entries": [
         { "item": "armor_farmor", "prob": 100, "damage": [ 1, 4 ] },
         { "item": "sword_crude", "prob": 100, "damage": [ 1, 4 ] },
         { "item": "grapling_egg", "prob": 100, "count": [ 1, 4 ] }
    ]
  },
  {
    "type": "item_group",
    "subtype": "collection",
    "id": "spear_bronze",
    "entries": [
         { "item": "armor_farmor", "prob": 100, "damage": [ 1, 4 ] },
         { "item": "spear_homemade_halfpike", "prob": 100, "damage": [ 1, 4 ] },
         { "item": "grapling_egg", "prob": 100, "count": [ 1, 4 ] }
    ]
  },
  {
    "type": "item_group",
    "subtype": "collection",
    "id": "xiphos_bronze",
    "entries": [
         { "item": "steel_chunk", "prob": 100, "count": [ 4, 8 ] },
         { "item": "sword_xiphos", "prob": 100, "damage": [ 3, 4 ] },
         { "item": "grapling_egg", "prob": 100, "count": [ 1, 4 ] }
    ]
  },
  {
    "type": "item_group",
    "subtype": "collection",
    "id": "janisary_iron",
    "entries": [
         { "item": "steel_chunk", "prob": 100, "count": [ 4, 8 ] },
         { "item": "ax", "prob": 100, "damage": [ 3, 4 ] },
         { "item": "selfbow", "prob": 100, "damage": [ 3, 4 ] },
         { "item": "grapling_egg", "prob": 100, "count": [ 1, 4 ] }
    ]
  },
  {
    "type": "item_group",
    "subtype": "collection",
    "id": "grapling_armor_sword",
    "entries": [
         { "item": "steel_chunk", "prob": 100, "count": [ 4, 8 ] },
         { "item": "scimitar", "prob": 100, "damage": [ 3, 4 ] },
         { "item": "grapling_egg", "prob": 100, "count": [ 1, 4 ] }
    ]
  },
  {
    "type": "item_group",
    "subtype": "collection",
    "id": "grapling_armor_pike",
    "entries": [
         { "item": "steel_chunk", "prob": 100, "count": [ 4, 8 ] },
         { "item": "pike_wood", "prob": 100, "damage": [ 3, 4 ] },
         { "item": "grapling_egg", "prob": 100, "count": [ 1, 4 ] }
    ]
  },
  {
    "type": "item_group",
    "subtype": "collection",
    "id": "pesant_grapling",
    "entries": [
         { "item": "footrags", "prob": 50, "count": [ 1, 4 ] },
         { "item": "loincloth", "prob": 50, "damage": [ 1, 4 ] },
         { "item": "cloak_wool", "prob": 50, "damage": [ 1, 4 ] },
         { "item": "ragpouch", "prob": 50, "damage": [ 1, 4 ] },
         { "item": "small_relic", "prob": 50, "damage": [ 1, 4 ] },
         { "item": "gloves_wraps", "prob": 50, "damage": [ 1, 4 ] },
         { "item": "tunic_rag", "prob": 50, "damage": [ 1, 4 ] },
         { "item": "pitchfork", "prob": 100, "damage": [ 1, 4 ] },
         { "item": "grapling_egg", "prob": 100, "count": [ 1, 4 ] }
    ]
  },
  {
    "type": "item_group",
    "subtype": "collection",
    "id": "baker_grapling",
    "entries": [
         { "item": "footrags", "prob": 50, "count": [ 1, 4 ] },
         { "item": "loincloth", "prob": 50, "damage": [ 1, 4 ] },
         { "item": "cloak_wool", "prob": 50, "damage": [ 1, 4 ] },
         { "item": "ragpouch", "prob": 50, "damage": [ 1, 4 ] },
         { "item": "small_relic", "prob": 50, "damage": [ 1, 4 ] },
         { "item": "gloves_wraps", "prob": 50, "damage": [ 1, 4 ] },
         { "item": "tunic_rag", "prob": 50, "damage": [ 1, 4 ] },
         { "item": "s_brown_bread", "prob": 50 },
         { "item": "s_biscut", "prob": 50 },
         { "item": "rolling_pin", "prob": 100, "damage": [ 1, 4 ] },
         { "item": "grapling_egg", "prob": 100, "count": [ 1, 4 ] }
    ]
  },
  {
    "type": "item_group",
    "subtype": "collection",
    "id": "pesant_grapling_child",
    "entries": [
         { "item": "footrags", "prob": 50, "count": [ 1, 4 ] },
         { "item": "loincloth", "prob": 50, "damage": [ 1, 4 ] },
         { "item": "ragpouch", "prob": 50, "damage": [ 1, 4 ] },
         { "item": "gloves_wraps", "prob": 50, "damage": [ 1, 4 ] },
         { "item": "tunic_rag", "prob": 50, "damage": [ 1, 4 ] },
         { "item": "survival_marker", "prob": 50, "damage": [ 1, 4 ] },
         { "item": "grapling_egg", "prob": 100, "count": [ 1, 4 ] }
    ]
  }
]
