[
    {
    "type": "COMESTIBLE",
    "id": "grapling_egg",
    "category": "other",
    "name": { "str": "chunk of oily meat", "str_pl": "chunks of oily meat" },
    "weight": "238 g",
    "color": "red",
    "spoils_in": "4 hours",
    "use_action": [ "POISON" ],
    "comestible_type": "FOOD",
    "symbol": "%",
    "calories": 174,
    "description": "Calling this meat is a diservice to meat, seeing that it dropped off of a grapling. Small bones stick out of the surface, and it seems to move and jiggle on it's own accord. Strangly, it seems to move more the closer you are. Eerie.",
    "price": 0,
    "price_postapoc": 10,
    "material": [ "flesh" ],
    "volume": "250 ml",
    "fun": -10,
    "flags": [ "TRADER_AVOID" ],
    "rot_spawn_chance": 85,
    "rot_spawn": "GROUP_ARM"
    },
    {
        "type": "COMESTIBLE",
        "id": "forarmperor_egg",
        "category": "other",
        "name": { "str": "forearmperor egg", "str_pl": "forearmperor eggs" },
        "weight": "238 g",
        "color": "red",
        "spoils_in": "4 hours",
        "use_action": [ "POISON" ],
        "comestible_type": "FOOD",
        "symbol": "%",
        "calories": 174,
        "description": "This small, fleshy egg was lain by the Forearmperor Queen - best burn it quickly.",
        "price": 0,
        "price_postapoc": 10,
        "material": [ "flesh" ],
        "volume": "250 ml",
        "fun": -10,
        "flags": [ "TRADER_AVOID" ],
        "rot_spawn_chance": 85,
        "rot_spawn": "GROUP_FOREARM_EGG"
        }
]
