[
  {
    "type": "monstergroup",
    "name": "GROUP_ZOMBIE",
    "monsters": [
      { "monster": "mon_zombie_oil", "freq": 75, "cost_multiplier": 0 },
      { "monster": "mon_zombie_cop_oil", "freq": 75, "cost_multiplier": 0 },
      { "monster": "mon_zombie_crawler_oil", "freq": 75, "cost_multiplier": 0 },
      { "monster": "mon_zombie_fat_oil", "freq": 75, "cost_multiplier": 0 },
      { "monster": "mon_zombie_fireman_oil", "freq": 75, "cost_multiplier": 0 },
      { "monster": "mon_zombie_swat_oil", "freq": 75, "cost_multiplier": 0 },
      { "monster": "mon_severed_arm", "freq": 75, "cost_multiplier": 0 },
      { "monster": "mon_zom_alpha", "freq": 75, "cost_multiplier": 0 },
      { "monster": "mon_bloodfly_nest", "freq": 75, "cost_multiplier": 0 },
      { "monster": "mon_zombie_tough_oil", "freq": 75, "cost_multiplier": 0 },
      { "monster": "mon_grapling_spider", "freq": 10, "cost_multiplier": 0 },
      { "monster": "mon_fingerling", "freq": 10, "cost_multiplier": 0, "pack_size": [ 5, 10 ] },
      { "monster": "mon_forearmperor", "freq": 10, "cost_multiplier": 0 },
      { "monster": "mon_forearmperor_large", "freq": 10, "cost_multiplier": 0 },
      { "monster": "mon_grapling", "freq": 10, "cost_multiplier": 1, "conditions": [ "SPRING", "SUMMER", "AUTUMN" ] },
      {
        "monster": "mon_grapling_nc_a",
        "freq": 5,
        "cost_multiplier": 1,
        "conditions": [ "SPRING", "SUMMER", "AUTUMN" ],
        "pack_size": [ 1, 3 ]
      },
      {
        "monster": "mon_grapling_nc_b",
        "freq": 5,
        "cost_multiplier": 1,
        "conditions": [ "SPRING", "SUMMER", "AUTUMN" ],
        "pack_size": [ 1, 3 ]
      },
      {
        "monster": "mon_grapling_a",
        "freq": 10,
        "cost_multiplier": 1,
        "conditions": [ "SPRING", "SUMMER", "AUTUMN" ],
        "pack_size": [ 1, 3 ]
      },
      {
        "monster": "mon_grapling_b",
        "freq": 10,
        "cost_multiplier": 1,
        "conditions": [ "SPRING", "SUMMER", "AUTUMN" ],
        "pack_size": [ 1, 3 ]
      },
      {
        "monster": "mon_grapling_c",
        "freq": 10,
        "cost_multiplier": 1,
        "conditions": [ "SPRING", "SUMMER", "AUTUMN" ],
        "pack_size": [ 1, 3 ]
      }
    ]
  },
  {
    "type": "monstergroup",
    "name": "GROUP_HOSPITAL",
    "monsters": [
      { "monster": "mon_zombie_oil", "freq": 75, "cost_multiplier": 0 },
      { "monster": "mon_zombie_cop_oil", "freq": 75, "cost_multiplier": 0 },
      { "monster": "mon_zombie_crawler_oil", "freq": 75, "cost_multiplier": 0 },
      { "monster": "mon_zombie_fat_oil", "freq": 75, "cost_multiplier": 0 },
      { "monster": "mon_zombie_fireman_oil", "freq": 75, "cost_multiplier": 0 },
      { "monster": "mon_zombie_swat_oil", "freq": 75, "cost_multiplier": 0 },
      { "monster": "mon_severed_arm", "freq": 75, "cost_multiplier": 0 },
      { "monster": "mon_zom_alpha", "freq": 75, "cost_multiplier": 0 },
      { "monster": "mon_os_cmarinedead", "freq": 25, "cost_multiplier": 0 },
      { "monster": "mon_fingerling", "freq": 10, "cost_multiplier": 1, "pack_size": [ 5, 10 ] },
      { "monster": "mon_zombie_tough_oil", "freq": 75, "cost_multiplier": 0 },
      { "monster": "mon_grapling", "freq": 10, "cost_multiplier": 1, "conditions": [ "SPRING", "SUMMER", "AUTUMN" ] },
      {
        "monster": "mon_grapling_nc_a",
        "freq": 5,
        "cost_multiplier": 1,
        "conditions": [ "SPRING", "SUMMER", "AUTUMN" ],
        "pack_size": [ 1, 3 ]
      },
      {
        "monster": "mon_grapling_nc_b",
        "freq": 5,
        "cost_multiplier": 1,
        "conditions": [ "SPRING", "SUMMER", "AUTUMN" ],
        "pack_size": [ 1, 3 ]
      },
      {
        "monster": "mon_grapling_a",
        "freq": 10,
        "cost_multiplier": 1,
        "conditions": [ "SPRING", "SUMMER", "AUTUMN" ],
        "pack_size": [ 1, 3 ]
      },
      {
        "monster": "mon_grapling_b",
        "freq": 10,
        "cost_multiplier": 1,
        "conditions": [ "SPRING", "SUMMER", "AUTUMN" ],
        "pack_size": [ 1, 3 ]
      },
      {
        "monster": "mon_grapling_c",
        "freq": 10,
        "cost_multiplier": 1,
        "conditions": [ "SPRING", "SUMMER", "AUTUMN" ],
        "pack_size": [ 1, 3 ]
      }
    ]
  },
  {
    "type": "monstergroup",
    "name": "GROUP_GROCERY",
    "monsters": [
      { "monster": "mon_zombie_oil", "freq": 75, "cost_multiplier": 0 },
      { "monster": "mon_zombie_cop_oil", "freq": 75, "cost_multiplier": 0 },
      { "monster": "mon_zombie_crawler_oil", "freq": 75, "cost_multiplier": 0 },
      { "monster": "mon_zombie_fat_oil", "freq": 75, "cost_multiplier": 0 },
      { "monster": "mon_zombie_fireman_oil", "freq": 75, "cost_multiplier": 0 },
      { "monster": "mon_zombie_swat_oil", "freq": 75, "cost_multiplier": 0 },
      { "monster": "mon_severed_arm", "freq": 75, "cost_multiplier": 0 },
      { "monster": "mon_zom_alpha", "freq": 75, "cost_multiplier": 0 },
      { "monster": "mon_zombie_tough_oil", "freq": 75, "cost_multiplier": 0 },
      { "monster": "mon_grapling", "freq": 10, "cost_multiplier": 1, "conditions": [ "SPRING", "SUMMER", "AUTUMN" ] },
      { "monster": "mon_fingerling", "freq": 10, "cost_multiplier": 1, "pack_size": [ 5, 10 ] },
      {
        "monster": "mon_grapling_nc_a",
        "freq": 5,
        "cost_multiplier": 1,
        "conditions": [ "SPRING", "SUMMER", "AUTUMN" ],
        "pack_size": [ 1, 3 ]
      },
      {
        "monster": "mon_grapling_nc_b",
        "freq": 5,
        "cost_multiplier": 1,
        "conditions": [ "SPRING", "SUMMER", "AUTUMN" ],
        "pack_size": [ 1, 3 ]
      },
      {
        "monster": "mon_grapling_a",
        "freq": 10,
        "cost_multiplier": 1,
        "conditions": [ "SPRING", "SUMMER", "AUTUMN" ],
        "pack_size": [ 1, 3 ]
      },
      {
        "monster": "mon_grapling_b",
        "freq": 10,
        "cost_multiplier": 1,
        "conditions": [ "SPRING", "SUMMER", "AUTUMN" ],
        "pack_size": [ 1, 3 ]
      },
      {
        "monster": "mon_grapling_c",
        "freq": 10,
        "cost_multiplier": 1,
        "conditions": [ "SPRING", "SUMMER", "AUTUMN" ],
        "pack_size": [ 1, 3 ]
      }
    ]
  },
  {
    "type": "monstergroup",
    "name": "GROUP_HOUSE",
    "monsters": [
      { "monster": "mon_zombie_oil", "freq": 75, "cost_multiplier": 0 },
      { "monster": "mon_zombie_cop_oil", "freq": 75, "cost_multiplier": 0 },
      { "monster": "mon_zombie_crawler_oil", "freq": 75, "cost_multiplier": 0 },
      { "monster": "mon_zombie_fat_oil", "freq": 75, "cost_multiplier": 0 },
      { "monster": "mon_zombie_fireman_oil", "freq": 75, "cost_multiplier": 0 },
      { "monster": "mon_zombie_swat_oil", "freq": 75, "cost_multiplier": 0 },
      { "monster": "mon_zombie_tough_oil", "freq": 75, "cost_multiplier": 0 },
      { "monster": "mon_zom_alpha", "freq": 75, "cost_multiplier": 0 },
      { "monster": "mon_severed_arm", "freq": 75, "cost_multiplier": 0 },
      { "monster": "mon_os_clockworksoldier", "freq": 75, "cost_multiplier": 0 },
      { "monster": "mon_os_cmarinedead", "freq": 25, "cost_multiplier": 0 },
      { "monster": "mon_grapling_spider", "freq": 10, "cost_multiplier": 1 },
      { "monster": "mon_fingerling", "freq": 10, "cost_multiplier": 1, "pack_size": [ 5, 10 ] },
      { "monster": "mon_forearmperor", "freq": 10, "cost_multiplier": 0 },
      { "monster": "mon_forearmperor_large", "freq": 10, "cost_multiplier": 0 },
      { "monster": "mon_grapling", "freq": 10, "cost_multiplier": 1, "conditions": [ "SPRING", "SUMMER", "AUTUMN" ] },
      {
        "monster": "mon_grapling_nc_a",
        "freq": 5,
        "cost_multiplier": 1,
        "conditions": [ "SPRING", "SUMMER", "AUTUMN" ],
        "pack_size": [ 1, 3 ]
      },
      {
        "monster": "mon_grapling_nc_b",
        "freq": 5,
        "cost_multiplier": 1,
        "conditions": [ "SPRING", "SUMMER", "AUTUMN" ],
        "pack_size": [ 1, 3 ]
      },
      {
        "monster": "mon_grapling_a",
        "freq": 10,
        "cost_multiplier": 1,
        "conditions": [ "SPRING", "SUMMER", "AUTUMN" ],
        "pack_size": [ 1, 3 ]
      },
      {
        "monster": "mon_grapling_b",
        "freq": 10,
        "cost_multiplier": 1,
        "conditions": [ "SPRING", "SUMMER", "AUTUMN" ],
        "pack_size": [ 1, 3 ]
      },
      {
        "monster": "mon_grapling_c",
        "freq": 10,
        "cost_multiplier": 1,
        "conditions": [ "SPRING", "SUMMER", "AUTUMN" ],
        "pack_size": [ 1, 3 ]
      }
    ]
  },
  {
    "type": "monstergroup",
    "name": "DUMP_ANIMALS",
    "monsters": [
      { "monster": "mon_os_clockworksoldier", "freq": 20, "cost_multiplier": 1 },
      { "monster": "mon_os_cmarinedead", "freq": 15, "cost_multiplier": 0 },
      { "monster": "mon_bloodfly_nest", "freq": 20, "cost_multiplier": 1 },
      { "monster": "mon_grapling_spider", "freq": 10, "cost_multiplier": 1 },
      { "monster": "mon_fingerling", "freq": 10, "cost_multiplier": 1, "pack_size": [ 5, 10 ] },
      { "monster": "mon_forearmperor", "freq": 10, "cost_multiplier": 0 },
      { "monster": "mon_zom_alpha", "freq": 75, "cost_multiplier": 0 },
      { "monster": "mon_forearmperor_large", "freq": 10, "cost_multiplier": 0 },
      { "monster": "mon_grapling", "freq": 10, "cost_multiplier": 1, "conditions": [ "SPRING", "SUMMER", "AUTUMN" ] },
      {
        "monster": "mon_grapling_nc_a",
        "freq": 5,
        "cost_multiplier": 1,
        "conditions": [ "SPRING", "SUMMER", "AUTUMN" ],
        "pack_size": [ 1, 3 ]
      },
      {
        "monster": "mon_grapling_nc_b",
        "freq": 5,
        "cost_multiplier": 1,
        "conditions": [ "SPRING", "SUMMER", "AUTUMN" ],
        "pack_size": [ 1, 3 ]
      },
      {
        "monster": "mon_grapling_a",
        "freq": 10,
        "cost_multiplier": 1,
        "conditions": [ "SPRING", "SUMMER", "AUTUMN" ],
        "pack_size": [ 1, 3 ]
      },
      {
        "monster": "mon_grapling_b",
        "freq": 10,
        "cost_multiplier": 1,
        "conditions": [ "SPRING", "SUMMER", "AUTUMN" ],
        "pack_size": [ 1, 3 ]
      },
      {
        "monster": "mon_grapling_c",
        "freq": 10,
        "cost_multiplier": 1,
        "conditions": [ "SPRING", "SUMMER", "AUTUMN" ],
        "pack_size": [ 1, 3 ]
      }
    ]
  },
  {
    "type": "monstergroup",
    "name": "GROUP_PEST",
    "monsters": [
      { "monster": "mon_os_clockworksoldier", "freq": 20, "cost_multiplier": 1 },
      { "monster": "mon_os_cmarinedead", "freq": 5, "cost_multiplier": 0 },
      { "monster": "mon_bloodfly_nest", "freq": 20, "cost_multiplier": 1 },
      { "monster": "mon_grapling_spider", "freq": 10, "cost_multiplier": 1 },
      { "monster": "mon_fingerling", "freq": 10, "cost_multiplier": 1, "pack_size": [ 5, 10 ] },
      { "monster": "mon_forearmperor", "freq": 10, "cost_multiplier": 0 },
      { "monster": "mon_forearmperor_large", "freq": 10, "cost_multiplier": 0 },
      { "monster": "mon_grapling", "freq": 10, "cost_multiplier": 1, "conditions": [ "SPRING", "SUMMER", "AUTUMN" ] },
      {
        "monster": "mon_grapling_nc_a",
        "freq": 5,
        "cost_multiplier": 1,
        "conditions": [ "SPRING", "SUMMER", "AUTUMN" ],
        "pack_size": [ 1, 3 ]
      },
      {
        "monster": "mon_grapling_nc_b",
        "freq": 5,
        "cost_multiplier": 1,
        "conditions": [ "SPRING", "SUMMER", "AUTUMN" ],
        "pack_size": [ 1, 3 ]
      },
      {
        "monster": "mon_grapling_a",
        "freq": 10,
        "cost_multiplier": 1,
        "conditions": [ "SPRING", "SUMMER", "AUTUMN" ],
        "pack_size": [ 1, 3 ]
      },
      {
        "monster": "mon_grapling_b",
        "freq": 10,
        "cost_multiplier": 1,
        "conditions": [ "SPRING", "SUMMER", "AUTUMN" ],
        "pack_size": [ 1, 3 ]
      },
      {
        "monster": "mon_grapling_c",
        "freq": 10,
        "cost_multiplier": 1,
        "conditions": [ "SPRING", "SUMMER", "AUTUMN" ],
        "pack_size": [ 1, 3 ]
      }
    ]
  },
  {
    "type": "monstergroup",
    "name": "GROUP_FOREST",
    "monsters": [
      { "monster": "mon_os_clockworksoldier", "freq": 20, "cost_multiplier": 1 },
      { "monster": "mon_bloodfly_nest", "freq": 20, "cost_multiplier": 1 },
      { "monster": "mon_grapling_spider", "freq": 10, "cost_multiplier": 1 },
      { "monster": "mon_fingerling", "freq": 10, "cost_multiplier": 1, "pack_size": [ 5, 10 ] },
      { "monster": "mon_forearmperor", "freq": 10, "cost_multiplier": 0 },
      { "monster": "mon_forearmperor_large", "freq": 10, "cost_multiplier": 0 },
      { "monster": "mon_grapling", "freq": 10, "cost_multiplier": 1, "conditions": [ "SPRING", "SUMMER", "AUTUMN" ] },
      {
        "monster": "mon_grapling_nc_a",
        "freq": 5,
        "cost_multiplier": 1,
        "conditions": [ "SPRING", "SUMMER", "AUTUMN" ],
        "pack_size": [ 1, 3 ]
      },
      {
        "monster": "mon_grapling_nc_b",
        "freq": 5,
        "cost_multiplier": 1,
        "conditions": [ "SPRING", "SUMMER", "AUTUMN" ],
        "pack_size": [ 1, 3 ]
      },
      {
        "monster": "mon_grapling_a",
        "freq": 10,
        "cost_multiplier": 1,
        "conditions": [ "SPRING", "SUMMER", "AUTUMN" ],
        "pack_size": [ 1, 3 ]
      },
      {
        "monster": "mon_grapling_b",
        "freq": 10,
        "cost_multiplier": 1,
        "conditions": [ "SPRING", "SUMMER", "AUTUMN" ],
        "pack_size": [ 1, 3 ]
      },
      {
        "monster": "mon_grapling_c",
        "freq": 10,
        "cost_multiplier": 1,
        "conditions": [ "SPRING", "SUMMER", "AUTUMN" ],
        "pack_size": [ 1, 3 ]
      }
    ]
  }
]
