[
  {
    "type": "construction",
    "id": "constr_seal_portal",
    "group": "build_door_curtain",
    "//": "Door frame not required",
    "category": "CONSTRUCT",
    "required_skills": [ [ "fabrication", 1 ] ],
    "time": "30 m",
    "qualities": [ [ { "id": "HAMMER", "level": 2 } ] ],
    "components": [
      [ [ "os_seal_reality_weak", 1 ] ]
    ],
    "pre_terrain": "t_portal",
    "post_terrain": "t_portal_weak"
  }
]