[
  {
    "type": "MOD_INFO",
    "id": "nymallfactions",
    "name": "Nymall's Factions",
    "authors": [ "Nymall" ],
    "maintainers": [ ],
    "description": "Extends built in factions with additional NPCs, additional factions and locations.",
    "category": "content",
    "dependencies": [ "dda", "nymalltools" ]
  }
]
