[
  {
    "type": "snippet",
    "category": "radio_archive",
    "text": [
      "Gaia Gardens - your oasis awaits! Terraced units let you see over the city, and the gem of the development, the Manorhouse, could be yours! Prices start at five-hundred million credits. What are you waiting for? Ascend now to Gaia Gardens!",
      "kssht.  VIP located, looking for extaction at core ECHO FOXTROT LAMBA DELTA. kssht We say again, extraction at ECHO FOXTROT LAMBA DELTA kssht.",
      "GHHHHHRRRRA. Ggggghggghgrgrrrraah haaaaaaa ahaahaaaaa GRAAAA AGGGGGGHGGAaaaaaaa...",
      "kssht.  Peterson, what the hell you doing? Get back to the line. Someone is coming down the road.",
	  "kssht.  Steady...",
      "Tennant Park - your investment opertunity. Pads for as little as 100$ per month, and with managed ownership, plop down your manufactured home and begin earning money.",
	  "kssht.  These civvies are pretty messed up. Do you think the empire did this?",
	  "kssht.  Got mounted soldiers on my six. They're wearing the red and white, but no armor. Engage?",
      "...that's right Jimmy. Three Anacondas! Boy was she supprised! Ha ha ha ha ha...",
	  "kssht.  Got another empire trooper on my six. Same process as last time - get your rad rounds ready.",
	  "...In my world Jim, ALL hats are made of balloon animals...",
	  "COMMAND REQUESTED.  GHOST WOLVES HAVE BEEN DETECTED IN RUINS.  STRUCTURE PREDATES EMPIRE - ANACRONISM DETECTED. COMMAND REQUESTED.",
	  "COMMAND REQUESTED.  SHIELD TWO AND FOUR HAVE FALLEN.  SHIELD THREE AND FIVE ARE MIA.  COMMAND REQUESTED.",
	  "COMMAND REQUESTED.  AUTONOMOUS SUITS FOR SHIELD TWO AND FOUR ARE NOT RESPONDING TO SQUAD COMMANDS.  COMMAND REQUESTED.",
	  "COMMAND REQUESTED.  HAVE TAKEN CRITICAL DAMAGE.  REQUESTING SUPPORT OR EVAC.  COMMAND REQUESTED.",
	  "COMMAND UPDATE: Pilot has become unresponsive. Switching to Scorch and Burn scenario, as according to CC-6733 Accord. Vital signs nil. Awaiting for encryption key to hand off control to squad.",
	  "COMMAND UPDATE: Possible 6652 scenario - detecting large amounts of radiation in air, mixed with unknown contaminant. Sealing filters.",
	  "COMMAND UPDATE: Attempted control request from unverrified source. Eliminating.",
	  "COMMAND UPDATE: GPS unit malfunctioning. Attempting to use reconing to determine location....... failed.",
	  "COMMAND UPDATE: Pedometer unit malfunctioning. Calculated trajectory shows unit should be near the ruins of New Detroit, no change in landmass detected. No major polutants detected. Radiation levels variable.",
	  "COMMAND UPDATE: Engagement with enemy mechanized units. Identified - Security bots from the early 21st century. No critical threat.",
	  "kshhhhht UPDATE: Unable to determine landmass. Unable to place geographic range. Unable to -kshhht-",
	  "...Your office space is NOT Feng Shui if none of your pens have caps...",
	  "...See Jim, when I was a kid, every day I'd say to myself: Frank, tomorrow you just need to be a little bit older and a little bit wizer. Too bad I'm a serial procrastinator, heh heh heh...",
	  "...yeah, I just got bored, you know? Cataclysm was kinda freeing for me in that way - he was such a stupid lazy slob. I wish he had, you know, kicked the bucket earlier. I wonder what my life would have been like if I had been able to date before it all...",
	  "Calling all traders! The Free Merchants are now open for business. Follow the directions to your nearest evac shelter - and bring the good stuff!",
	  "It's BJORK days at BJORKS PETTING ZOO! Free screamsicle with insurance waiver signing! Entry fee only five dollars! BJORK LIKE YOU JUST DONT CARE - BJORKS PETTING ZOO",
	  "It's BJORK days at BJORKS PETTING ZOO! Free screamsicle with insurance waiver signing! Entry fee only five dollars! HANDS ON WILD ANIMAL TRAINING - BJORKS PETTING ZOO",
	  "Only BJORK allows you to get this close to the action! Free screamsicle with insurance waiver signing! Entry fee only five dollars! EXPERIENCE NATURE - BJORKS PETTING ZOO",
	  "Pete here at Breakers Inn - you won't find a cleaner, comfier, or cheaper placce to rest your feet then Breakers Inn. Come on in and take a break - Breakers Inn.",
	  "Pssst! You, yeah you! I'm going to break into your house right now! Thanks for voting for bill 88-3! - Don't let thugs like that ruin your neighborhood, vote to repeal bill 88-3, for your safty and security. Brought to you by Insurance Direct West of Clarkdale North.",
	  "Och, yer gonnae git fancy noo? How come dinnae ye pat this cream o' celery in yer coupon! Better than whit ye wur planning, ain't it? - AchDavis Brand Cream of Celery Soup - AchDavis - Stuff yer coupon!",
	  "Figure yersel' a tree eater, dae ye? Munch oan some! - AchDavis Brand Cream of Broccoli Soup - AchDavis - Stuff yer coupon!",
	  "ksssht... I feel like I have been driving forever. The map says that New England is only 500 miles, but I swear I've done three times that. I keep on coming across towns I've never heard of, and the maps have become entirely inaccurate. I must be going in circles...",
	  "ksssht... I'm not going in circles. I came across another New Bakersfield today, but this one is... different. Feels different too. I found the street I grew up on, my parents house, but it was a different house. Same address, but looked entirely different. If it wasn't for all the roamers, I'd go take a look...",
	  "Deathblaster, only 29.99$ with gun. If you want all the arcade classics, buy NeonRouge. NeonRouge - The CYBERgame is never CYBERover.",
	  "PollusRed, the sequal to the critically acclaimed PollusBlue is out now - Take the CYBERfight to the RED ARMOR INVADERS in this explosive packed spinoff of the classic POLLUS series. If you want all the arcade classics, buy NeonRouge. NeonRouge - The CYBERgame is never CYBERover.",
	  "Don't miss the 2020 deals at KyjuBlast Auto! The Deltasync Outlander is here, and for only twenty-three payments of twelve-six-ninety. With Etherlab Control, Wireless audio and charging, and a Neuclonium-percussive Plutonium Reactorbank, this truck never needs refuling. Deltasync can drive you anywhere, but only Kyjublast has them! Come in now for special introductory offers!",
	  "It's the sale you've been waiting for at Kinford Electronica! Come in and see our new XER-ba Balance Audio Lounge and test out the newest sound and video technology! Envision how the XER-ba can enrich your viewing experience, and come see our new range of flat panel televisions! We got Atomic Coffee brewed fresh - Come in and try some! Only at Kinford Electronica.",
	  "ksssht... That was stupid and impossible. There were two of those creatures in there. One of them looked like my Dad, the other though... I don't know who that woman was...",
	  "ksssht... just watched a number of them bring a building down. They were chasing after a guy, he high tailed it into an electronics store, and the hoard followed. They bashed through the front and all streamed in, and in a few minutes the front buckled and came down. Within a half hour the rest of the building had toppled in, the rest of the swarm still crawling about the ruins. Reminds me to always plan a way out...",
	  "She’s furry, she’s sweet, she wants something to eat - So feed her Papies Treats!",
	  "Oldenhome Adventure Wilds opens up for the season next week, and you’re invited to come celebrate with us! All kids under the age of twelve get a free day pass when they come with a family of four or more. Explore the Wilds - Oldenhome.",
	  "And here, for Technoburn Electronic cigarettes, is Grand Wizard Daldo and the boys with \"For Elemental Reasons... \" ",
	  "ksssht... I keep hoping one of these days your going to hear me Marjorie... I hope you're safe...",
	  "ksssht... I heard some survivors today on the radio, from a place called Kranzit - never heard of it. They're holed up in an evac shelter. I stopped and traded some of the stuff I've picked up, and got some more gasoline for my car. Nice enough people, but a little standoffish...",
	  "ksssht... I don't know why I'm even doing this. There's no one left to hear me...",
	  "ksssht... Found another group in a place they called Gaia's Garden. Seemed to be nice people, but there's a lot of sick there. I've seen this before in the hospital before... mom went. I had to get out of there, so I just traded a little and left. Gave me an eerie feeling, but that might just be my nerves. Things on the road have been tense latley...",
	  "ksssht... For a couple of minutes I thought I had made it to Canada - twelve mounties on horseback, red coats, stetsons and everything. I didn't stop to talk to them. Maybe I should have...",
	  "ksssht... Passed a biker's bar that seemed to be inhabited. Not going to take the chance though...",
	  "ksssht... With a little work, I think I can get this truck switched over to Biodesil. I've been collecting fat and oil, and I think I've figured out a process, but it's all theoretical for now. I'll have to find somewhere safe to do the conversion...",
	  "ksssht... That didn't go as bad as I thought it would. Found a farm, and did the conversion in the barn. The foods just out there rotting in the fields - such a waste. But, on the bright side, it might spread to the ecosystem and make foraging easier next year...",
	  "ksssht... I just heard one of my own messages play at me through the radio. This must be what it feels like to go crazy...",
	  "ksssht... I KNEW something was off. I found ANOTHER New Bakersfield today. THIS ONE had one of those large Evac Shelters, and I met the SAME BROKER and SAME beggars as last time. He said he had heard of me from my dealings with other Free Merchants. WHAT OTHER DEALINGS!? No, and I'm sure this is the same guy. I took a picture of him, just incase I end up meeting his OTHER twin brother...",
	  "ksssht... This is the longest bridge I have been on in my... whole... entire... life...",
	  "ksssht... Passed another Evac Shelter, but something went big time wrong inside. The whole front and roof of the building was collapsed in, and I could hear shooting and fighting going on inside, so I skedadled. Better safe then sorry...",
	  "ksssht... I'm hearing myself two or three times a day now. Must be something atmospheric after that event. I'm not an astrologist, or Meterologist, or whatever it's called...",
	  "ksssht... Heard myself again today. I sounded old - tired. Must just be another version of me out there, but he sounded so lifeless. I hope I don't become that...",
	  "ksssht... Found this huge butte in the middle of nowhere. Trailer perched on top of it like it had been plucked from somewhere and placed there by a gigantic... toddler. Not getting anywhere near that thing, what with the moving trees I saw yesterday...",
	  "ksssht... second solar pannel died today. Spare parts are getting harder to find...",
	  "ksssht... first winter is over... time is... ksssht... it's fine though... ksssht... tastes like leather...",
	  "ksssht... can't remember their faces... ksssht... so long ...",
	  "ksssht... the eye is huge, takes up the whole night sky... ksssht... never have gone out... ksssht... saw me...",
	  "ksssht... cow again... ksssht... wish the free merchants were still here...",
	  "ksssht... last day, I think... ksssht... don't want to become one of them...",
	  "ksssht... couldn't do it.",
	  "ksssht... transmission from another me. Sounds like it went really bad near a town called Lindesfarm. The wierd thing is - I remember that incident, and there was no horde there. Sounds like he got a bad bite and an infection. It's wierd to know that could have been me.",
	  "ksssht... about three miles out. There's a whole bunch of weird ones with them, and I think another necromancer. The last one wasn't so bad, I just got to remember to skedadle before the last shot so I don't get surrounded again.",
	  "ksssht... a laptop! It still worked, but there wasn't much I could do with it. Some database programs that couldn't connect to anything, and a few cheap games, but not much of interst. It's still a nice reminder of the old world.",
	  "ksssht... they're getting bigger, meaner. I don't think I'm supposed to be alive...",
	  "ksssht... bloody castle. Looks like it's been about 10 years since the last of them fell. Place is pretty picked clean. I guess even bikers can cooperate...",
	  "ksssht... I keep tapping into wierd radio stations in some towns. I suspect it's something atmospheric, but I've been hearing all kinds of chatter about an Empire of Canada, some sort of war with squid people, and something about a shock tower? Stuffs getting wierd...",
	  "ksssht... that tattered stetson's now his grave marker. Poor bugger. I hope he stays dead...",
	  "ksssht... -ardens is still running. Never would have guessed they would make it this far. Got some more casings for my anti-material rifle. I'm going to go into the scortch tongiht to see if I can get a new helmet...",
	  "ksssht... towers are still running. Surrounded by fields of crackling electricity. If they didn't cause it, the Factory sure as hell benifited from the end...",
	  "ksssht... dreamt of Geraldine again. Almost did it - I loaded the chamber, but I still couldn't pull the trigger. I'm so sorry my dear... I miss you so much...",
	  "ksssht... twenty-sixty. What the hell. whey the hell ashm I still here - huh God! the Fu- Kssssht",
	  "ksssht... another one of them in a ruin today. It's pretty beat up - lots of small arms fire from the look of it, and the legs don't work. It's active though... screeched at me that I was a ghost wolf or something and that I was breaking some sort of accord. If I can get near the thing I think I'll try and deactivate it, scrap it for parts.",
	  "Let us salute for our national anthem: Glorius, Glorius, The empire of the free! Glorius, Glorius, land of plen-a-ty. Glorius, oh Glorius, Oh Canada the Free! ITs for you my heart, for you my hand, we shall set the whole world free! For you do know how to hold the sword, and you do know how to bear the cross, and you do know how to keep us safe and free - Oh glorius, oh glorius, oh Empire of the Free!",
	  "ksssht... leading this to being the fourth attack from the terrorist group only known as the Ghost Wolves. Goverment agent Wes Bardeaux had this to say: \" If only they had been smart enough to learn from the FLQ disaster in Quebec. No one stands up to the Canadian Government and lives. If we have to bomb out another one of their sqalor camps, then so be it! They had thier chance, and their bandit soldiers will need to deal with the fallout.\". Emperor Gar-saux-quit was not availible for comment.",
	  "There is only one place where go from high school to flight school - the Army. Today’s Army has more pilots than the largest airlines. Be all that you can be, Join the American Armed Forces today.",
	  "Evil dosen't wait for convenience - protect your friends and loved ones - join the Army. Reserve positions now availible. Be all that you can be, Join the American Armed Forces today.",
	  "Get the best education, skills and experince for the modern world. Hiring all engineers and servicemen - the Army. Be all that you can be, Join the American Armed Forces today.",
	  "Every team has a goal, but only one team in the world has what it takes to succeed no matter what gets in their way - The Army. Be all that you can be, Join the American Armed Forces today.",
	  "He came from the cushy world of limousine dispatching to join forces with the NYPD, and now all hell's gonna break loose. High action adventure, torrid romance, human drama. - Turk Gruman, Police Dispatcher - New episode tonight, after Late Night Theatre",
	  "This Pastry Chef is cleaning up the streets the only way he knows how. Someone stole his favorite soufle pan, now heads will roll. - Gâteau Pain, Chef at Large - New episode following Delagius Crumb.",
	  "This ten second tip brought to you by Jojobanks - the only insurance agency that pays you in CASH. Remember, inclement weather may reduce visibility and traction. Drive accordingly - only suckers hit mobile trees!",
	  "This ten second tip brought to you by Jojobanks - the only insurance agency that pays you in CASH. Remember, if anything happens to you, call your insurance agent first! We're here to help, and can coach you through police interigations.",
	  "This ten second tip brought to you by Jojobanks - the only insurance agency that pays you in CASH. Always wear your seatbelt! It's better that you're secure and alive, then mobile and a smear!",
	  "This ten second tip brought to you by Jojobanks - the only insurance agency that pays you in CASH. Remember if your friends or loved ones refuse to wear a seatbelt to get them to sign form 51B-outline. From then on, the choices they make are theirs alone!",
	  "This ten second tip brought to you by Jojobanks - the only insurance agency that pays you in CASH. Remember - first step is to call us, second is to document! Documenting saves court time, and covers your ass! Even if you are at fault, if you are the only one who has evidence, who's the judge going to believe?",
	  "Convenient Methods - when your opponent is anything BUT convenient, choose Convenient Methods. The new Stinger line relies on the pattented Bioscilified round, producable in the Stinger Biosilification Plant - turn your food waste into ammo!",
	  "The Centrigon Wonder Rod is your one stop shop for directable force. Using our array of attachments and modules, you can turn this killing stick into an all out decimator! Great for close encounters and group fights! Centrigon - Never stop improving.",
      "kshhhhht...Tourrez is fifty miles south. You'll never make it...kshhhhht",
	  "kshhhhht...No, he can't still be out there. It's the fallout playing tricks on you...kshhhhht",
	  "kshhhhht...more of them this time. They're like some sick teen's horrifying sketchbook doodles - all hands and black ooze. Worst thing is it looks like they're playing us. The world has gone mad...kshhhhht",
	  "kshhhhht...the buzzing from a mile away. Look for the stationary blob - that's the hive. If you kill the zombie, the nest will die due to the symbiotic relationship...kshhhhht",
	  "kshhhhht...and I agree that the Canadian Goverment has a lot to answer for. The pre-colonization issues and eradication of the native peoples were swept under the rug by XK-3472, and while the goverment had...kshhhhht",
	  "Come down and meet BEAVER JOHN in LITTLE CANADIA! Grab yourself some pootine and try your hand at hockey, you hoser!",
	  "kshhhhht...gone up the double road towards Kent-Newberry Corner. They must have a hideout on the other side of the ridge...kshhhhht",
	  "ksssht... I think reality is starting to break down here. I saw one of those new things, but it hurt to look at. It's body was made of stars and it fazed around uncontrollably...",
	  "ksssht... Well, Bessy Two finaly bit the dust. It was the alternator this time. They're getting harder to find. I'm going to mark the location on my map and come back to get the biofuel stuff, but as it is she's done for. Time to look for a new truck...",
	  "ksssht... always been a truck man, but this little car has some zip! I don't quite know how to read all the gauges, but I figure I've got a weeks worth of plutonium in the reactor, and about six more cells I've been able to scavenge from a lab. If I can wire in another storage battery or two I'll be set...",
	  "ksssht... to slide 37. The Cuban Brigade was a direct response to an invasion by the Empire of Canada in 2168 - a covert strike force deployed by the Cuban Dictatorial Regime to attempt to eliminate the comanders of the Empire of Canada. We don't know when they entered the expanse, other then the first few recorded by Dockhand agents in direct conflict with CF Echo Soldiers...",
	  "ksssht... to slide 172. Hells Raiders seem to be an otherworld spin-off of the epitimous Hells Angels, however we have not been able to get any dialogue with them at all. All captured agents seem to far gone to reason with, and they all seem to be only about destruction and chaos...",
	  "ksssht... to slide 242. The factory seems to be some sort of parisitic pan-dimensional corperation with an unknown base. Agents have managed to get inside factory bases and even cross through the dimensional barrier, but all have been quickly found and eliminated by factory agents. Description of the far side of the portal seems to be a large cybernetic organic factory stretching in every direction as far as the eye can see. There is oxygen in this space, but no gravity, meaning agents must have zero-g experience...",
	  "ksssht... to slide 298. The Outsider is as close to a 'god' as we have met in the expanse. Both the Outsider and the beings he declare as his family seem to have unlimited ability to alter time and space to suit their own interests, though they seem to enjoy playing with others by sending them on random and often seeming useless quests. Not outwardly hostile or durible, they seem to come back and retain memories of previous altercations, Agents should be advised...",
	  "ksssht... to slide 308. The Social Order should not be considered a threat, however they do not qualify for assistance under UED-1088. Direct them towards the Free Merchant civilization...",
	  "ksssht... to slide 321. Gaia's Gardens are not a direct concern for the agency, and they do not qualify for assistance under UED-1088. They have an infermary set up, so all agents are advised to direct wounded survivors to them to save resources...",
	  "ksssht... no longer in operation. The standard that was previously used should still be maintained: Secure the Object, Contain the Incident, Protect Civilization. All documents from the lab should be brought back for dissemination, as there are a potentially unlimited number of rogue items...",
	  "ksssht... unknown. We have to assume they are working with one of these factions and will be hostile to...",
	  "ksssht... this lake is truely huge. I can't see the other side, but it's not salt water, so it can't be the ocean. I'm going to have to backtrack to Lindesfarm to see if I can find a way around...",
	  "ksssht... of all the ...kssst... come ...ksssht... shores of Ludes...kssssssssssht.. Saint Aidres...ksssht... found the seat...",
	  "ksssht... a bad omen: great sheets of light and flame in the sky, followed by a great famine and destruction of our fields...",
	  "Do not go after the indulgences of the flesh and the greed of the world...",
	  "Stand firm in the service of God...",
	  "The Saints will not cease in protecting you.",
	  "God is as much a lie as the devil as are his rules...",
	  "Indulge in what you can, while you can...",
	  "Death is dead and all that remains is suffering!"
    ]
  },
  {
    "type": "snippet",
    "category": "gang_slogan",
    "text": [
      "Ride me like your harley!",
	  "Quit staring at my high-beams!",
	  "Want to rev me up?",
	  "Time to MOTORBOAT.",
	  "My other ride is a Harley.",
	  "My tits are down here!"
	  ]
  },
  {
    "type": "snippet",
    "category": "computer_noises",
    "text": [
      "Krek",
	  "KEE",
	  "KREE",
	  "KEERE",
	  "Fweeeeeeeeeeeeeeeee",
	  "Tweeeweeweeeewee",
	  "Twwwwaaaaa",
	  "WeeeeeWWWEEWWEEEwwwweeeedleeeee",
	  "Bwooooooooo",
	  "Pep",
	  "PRRRREEEP",
	  "Creee",
	  "Tk Tk Tk Tk",
	  "EEEEEEEEEDELEDELEEEEE",
	  "DOOOO",
	  "Doop",
	  "woop",
	  "BWoooop"
	  ]
  }
]