[
	{
		"type": "GENERIC",
		"id": "PSHUD_packed",
		"symbol": ";",
		"color": "dark_gray",
		"name": { "str": "PSHUD Box" },
		"description": "This is a large box labled 'PSHUD - NOT FOR RESALE' - You hope the setup is easy.",
		"price": 0,
		"price_postapoc": 10000,
		"material": [ "aluminum", "plastic" ],
		"weight": "158570 g",
		"volume": "100 L",
		"longest_side": "126 cm", 
		 
		"to_hit": -5,
		"flags": [ "FRAGILE_MELEE" ],
		"use_action": {
			"type": "place_npc",
			"npc_class_id": "PSHUD",
			"summon_msg": "You open the box and the droid automatically activates! Creepy. The box around them disintigrates.",
			"place_randomly": false,
			"moves": 50
		}
    }
]