[
  {
    "id": "bdu_solder",
    "type": "TOOL",
    "name": "solder reformer",
    "description": "This small box with a solar panel seems to be constantly producing solder from some unknown place, albiet slowly. This is the perfect tool if you have ADHD and find yourself constantly wandering away from projects.",
    "price": 100000,
    "price_postapoc": "1700 USD",
    "material": [ "steel" ],
    "charges_per_use": 1,
    "weight": "500 g",
    "volume": "450 ml",
    "to_hit": -1,
    "relic_data": { "charge_info": { "recharge_type": "periodic", "time": "1 h", "regenerate_ammo": true } },
    "pocket_data": [ { "pocket_type": "MAGAZINE", "ammo_restriction": { "solder": 1000 } } ]
  },
  {
    "type": "ammunition_type",
    "id": "solder",
    "name": "none",
    "default": "solder_wire"
  },
  {
    "id": "bdu_weld",
    "type": "TOOL",
    "name": "welding rod reinvigorator",
    "description": "This small box with a solar panel seems to be constantly producing steel welding rods from some unknown place, albiet slowly. This is the perfect tool if you have ADHD and find yourself constantly wandering away from projects.",
    "price": 100000,
    "price_postapoc": "1700 USD",
    "material": [ "steel" ],
    "charges_per_use": 1,
    "weight": "500 g",
    "volume": "450 ml",
    "to_hit": -1,
    "relic_data": { "charge_info": { "recharge_type": "periodic", "time": "1 h", "regenerate_ammo": true } },
    "pocket_data": [ { "pocket_type": "MAGAZINE", "ammo_restriction": { "weld": 100 } } ]
  },
  {
    "type": "ammunition_type",
    "id": "weld",
    "name": "none",
    "default": "welding_rod_steel"
  },
  {
    "id": "bdu_UPS",
    "type": "TOOL",
    "name": { "str": "Solar Powercube", "str_pl": "Solar Powercubes" },
    "description": "This is the Basement Dweller's Union Solar powercube. According to the advertisement, it uses ionized solar radiation to generate power slowly over long periods of time. Also, apparently if you can get twenty seven of these, you can make a much more powerful generator.",
    "weight": "100 g",
    "volume": "500 ml",
    "price": 280000,
    "price_postapoc": 1500,
    "to_hit": -1,
    "material": [ "aluminum", "plastic" ],
    "symbol": ";",
    "color": "light_gray",
    "ammo": [ "battery" ],
    "flags": [ "IS_UPS" ],
    "relic_data": { "charge_info": { "recharge_type": "periodic", "time": "5 m", "regenerate_ammo": true } },
    "pocket_data": [ { "pocket_type": "MAGAZINE", "rigid": true, "ammo_restriction": { "battery": 3000 } } ]
  },
  {
    "id": "bdu_UPS2",
    "type": "TOOL",
    "name": { "str": "Solar Powercube MK2", "str_pl": "Solar Powercubes MK2" },
    "description": "This is the Basement Dweller's Union Solar powercube. According to the advertisement, it uses ionized solar radiation to generate power slowly over long periods of time. These have been assembled into the Mark 2 solar power generator.",
    "weight": "2700 g",
    "volume": "13500 ml",
    "price": 280000,
    "price_postapoc": 1500,
    "to_hit": -1,
    "material": [ "aluminum", "plastic" ],
    "symbol": ";",
    "color": "light_gray",
    "ammo": [ "battery" ],
    "flags": [ "IS_UPS" ],
    "relic_data": { "charge_info": { "recharge_type": "periodic", "time": "30 s", "regenerate_ammo": true } },
    "pocket_data": [ { "pocket_type": "MAGAZINE", "rigid": true, "ammo_restriction": { "battery": 81000 } } ]
  }
]
