[
  {
    "type": "COMESTIBLE",
    "id": "gingerbeer",
    "looks_like": "cola",
    "name": { "str_sp": "ginger beer" },
    "weight": "260 g",
    "color": "brown",
    "container": "can_drink",
    "comestible_type": "DRINK",
    "symbol": "~",
    "quench": 20,
    "healthy": 0,
    "calories": 164,
    "description": "Slightly healthier than normal rootbeer, the ginger gives it a suprising kick. Maybe they were on to something...",
    "price": 95,
    "price_postapoc": 50,
    "material": [ "junk" ],
    "primary_material": "water",
    "volume": "250 ml",
    "phase": "liquid",
    "flags": [ "EATEN_COLD" ],
    "fun": 3
  },
  {
    "type": "COMESTIBLE",
    "id": "sprucebeer",
    "looks_like": "cola",
    "name": { "str_sp": "spruce beer" },
    "weight": "260 g",
    "color": "brown",
    "container": "can_drink",
    "comestible_type": "DRINK",
    "symbol": "~",
    "quench": 20,
    "healthy": -1,
    "calories": 190,
    "description": "What this lacks in health(it's full of sugar) it more than makes up for in tangy zing. And how!",
    "price": 95,
    "price_postapoc": 50,
    "material": [ "junk" ],
    "primary_material": "water",
    "volume": "250 ml",
    "phase": "liquid",
    "flags": [ "EATEN_COLD" ],
    "fun": 4
  },
  {
    "type": "COMESTIBLE",
    "id": "tea_anice",
    "name": { "str_sp": "anice seed tea" },
    "copy-from": "tea",
    "color": "red",
    "spoils_in": "10 days",
    "stim": 4,
    "fatigue_mod": 5,
    "quench": 30,
    "description": "Milk steeped in molasses and anice seeds.  Energizing, and great for digestion.",
    "price": 100,
    "price_postapoc": 25,
    "fun": 1,
    "flags": [ "EATEN_HOT", "NO_AUTO_CONSUME", "NUTRIENT_OVERRIDE" ],
    "use_action": {
      "type": "consume_drug",
      "activation_message": "You drink the anice tea.",
      "effects": [ { "id": "tummy_tablet", "duration": 6400 } ]
    }
  },
  {
    "type": "COMESTIBLE",
    "id": "msherry",
    "looks_like": "brandy",
    "name": { "str_sp": "mulled sherry" },
    "weight": "36 g",
    "color": "brown",
    "addiction_type": "alcohol",
    "use_action": [ "ALCOHOL" ],
    "stim": -12,
    "container": "bottle_glass",
    "comestible_type": "DRINK",
    "symbol": "~",
    "quench": -12,
    "healthy": -1,
    "addiction_potential": 5,
    "calories": 99,
    "description": "A mulled sherry, perfect for the cold weather.",
    "price": 2500,
    "price_postapoc": 150,
    "material": [ "alcohol" ],
    "volume": "250 ml",
    "flags": [ "EATEN_COLD", "NO_AUTO_CONSUME" ],
    "freezing_point": -30,
    "phase": "liquid",
    "stack_size": 7,
    "fun": 20
  },
  {
    "type": "COMESTIBLE",
    "id": "indo_coffee",
    "looks_like": "coffee",
    "name": { "str": "Indonesian coffee" },
    "weight": "255 g",
    "color": "brown",
    "addiction_type": "caffeine",
    "spoils_in": "14 hours",
    "fatigue_mod": 24,
    "stim": 8,
    "container": "jug_plastic",
    "sealed": false,
    "comestible_type": "DRINK",
    "symbol": "~",
    "quench": 40,
    "addiction_potential": 2,
    "calories": 129,
    "description": "Spiced Indonesian Style coffee. Great to stay warm during cold fall mornings.",
    "price": 480,
    "price_postapoc": 50,
    "material": [ "milk", "water" ],
    "primary_material": "milk",
    "volume": "500 ml",
    "phase": "liquid",
    "flags": [ "NO_AUTO_CONSUME" ],
    "vitamins": [ [ "vitC", 2 ], [ "calcium", 12 ] ],
    "fun": 10
  },
  {
    "type": "COMESTIBLE",
    "id": "drink_soldfas",
    "looks_like": "cola",
    "name": { "str_sp": "spiced old fasioned" },
    "weight": "252 g",
    "color": "brown",
    "addiction_type": "alcohol",
    "use_action": [ "ALCOHOL" ],
    "stim": -4,
    "container": "bottle_glass",
    "comestible_type": "DRINK",
    "symbol": "~",
    "quench": 25,
    "healthy": -1,
    "addiction_potential": 3,
    "calories": 177,
    "description": "Old time drink, but never forgotten. Tasty.",
    "price": 600,
    "price_postapoc": 250,
    "material": [ "alcohol", "junk" ],
    "primary_material": "alcohol",
    "volume": "250 ml",
    "stack_size": 1,
    "phase": "liquid",
    "flags": [ "EATEN_COLD", "NO_AUTO_CONSUME" ],
    "freezing_point": -30,
    "fun": 20
  },
  {
    "type": "COMESTIBLE",
    "id": "drink_manhat",
    "looks_like": "cola",
    "name": { "str_sp": "manhattan" },
    "weight": "252 g",
    "color": "brown",
    "addiction_type": "alcohol",
    "use_action": [ "ALCOHOL" ],
    "stim": -4,
    "container": "bottle_glass",
    "comestible_type": "DRINK",
    "symbol": "~",
    "quench": 20,
    "healthy": -1,
    "addiction_potential": 3,
    "calories": 177,
    "description": "The classic manhattan. Wiskey, vermouth, and bitters. Tasty.",
    "price": 600,
    "price_postapoc": 250,
    "material": [ "alcohol", "junk" ],
    "primary_material": "alcohol",
    "volume": "250 ml",
    "stack_size": 1,
    "phase": "liquid",
    "flags": [ "EATEN_COLD", "NO_AUTO_CONSUME" ],
    "freezing_point": -30,
    "fun": 18
  }
]
