[
  {
    "type": "COMESTIBLE",
    "id": "sack_lunch_lunch",
    "name": { "str": "Sack Lunch" },
    "weight": "930 g",
    "color": "yellow",
    "spoils_in": "1 days 12 hours",
    "comestible_type": "FOOD",
    "symbol": "~",
    "calories": 800,
    "quench": 10,
    "description": "This is a prepackaged lunch for eating on the road, consisting of a sandwich, a snack and a drink. Nutritious!",
    "price": 350,
    "price_postapoc": 25,
    "material": [ "veggy" ],
    "volume": "1000 ml",
    "stack_size": 1,
    "phase": "liquid",
    "flags": [ "FREEZERBURN", "USE_EAT_VERB", "NO_DROP" ],
    "fun": 4,
    "vitamins": [ [ "iron", 3 ] ]
  },
  {
    "type": "COMESTIBLE",
    "id": "sack_lunch_booze",
    "name": { "str": "Boozy Sack Lunch" },
    "weight": "930 g",
    "color": "yellow",
    "spoils_in": "1 days 12 hours",
    "comestible_type": "FOOD",
    "use_action": [ "ALCOHOL" ],
    "symbol": "~",
    "calories": 800,
    "quench": 4,
    "description": "This is a prepackaged lunch for eating on the road, consisting of a sandwich, a snack and a nice portion of alcohol. Nutritious!",
    "price": 350,
    "price_postapoc": 25,
    "material": [ "veggy" ],
    "volume": "1000 ml",
    "stack_size": 1,
    "phase": "liquid",
    "flags": [ "FREEZERBURN", "USE_EAT_VERB", "NO_DROP" ],
    "fun": 4,
    "vitamins": [ [ "iron", 3 ] ]
  },
  {
    "type": "COMESTIBLE",
    "id": "ploughmans_lunch",
    "name": { "str": "Ploughmans Lunch" },
    "weight": "630 g",
    "color": "yellow",
    "spoils_in": "1 days 12 hours",
    "comestible_type": "FOOD",
    "symbol": "~",
    "calories": 630,
    "quench": 10,
    "description": "Also known as the ploughman's platter, a lunch consisting of bread or crackers, cheese, leafy veggies, pickled onion, pickles, meats and a drink. Delicious!",
    "price": 350,
    "price_postapoc": 25,
    "material": [ "veggy", "flesh" ],
    "volume": "1000 ml",
    "stack_size": 1,
    "phase": "liquid",
    "flags": [ "FREEZERBURN", "USE_EAT_VERB", "NO_DROP" ],
    "fun": 4,
    "vitamins": [ [ "iron", 3 ] ]
  },
  {
    "type": "COMESTIBLE",
    "id": "ploughmans_lunch_a",
    "name": { "str": "Boozy Ploughmans Lunch" },
    "weight": "630 g",
    "color": "yellow",
    "spoils_in": "1 days 12 hours",
    "comestible_type": "FOOD",
    "symbol": "~",
    "calories": 630,
    "quench": 4,
    "description": "Also known as the ploughman's platter, a lunch consisting of bread or crackers, cheese, leafy veggies, pickled onion, pickles, meats and a nice portion of alcohol. Delicious!",
    "price": 350,
    "price_postapoc": 25,
    "material": [ "veggy", "flesh" ],
    "volume": "1000 ml",
    "stack_size": 1,
    "phase": "liquid",
    "flags": [ "FREEZERBURN", "USE_EAT_VERB", "NO_DROP" ],
    "fun": 4,
    "vitamins": [ [ "iron", 3 ] ]
  },
  {
    "type": "COMESTIBLE",
    "id": "full_meal",
    "name": { "str": "Full Meal" },
    "weight": "630 g",
    "color": "yellow",
    "spoils_in": "1 days 12 hours",
    "comestible_type": "FOOD",
    "symbol": "~",
    "calories": 1200,
    "quench": 10,
    "description": "This is a healthy full meal in a portable container, consisting of a main course, a side and a drink. Delicious!",
    "price": 350,
    "price_postapoc": 25,
    "material": [ "veggy", "flesh" ],
    "volume": "1000 ml",
    "stack_size": 1,
    "phase": "liquid",
    "flags": [ "FREEZERBURN", "USE_EAT_VERB", "NO_DROP" ],
    "fun": 4,
    "vitamins": [ [ "iron", 3 ] ]
  },
  {
    "type": "COMESTIBLE",
    "id": "full_meal_a",
    "name": { "str": "Boozy Full Meal" },
    "weight": "630 g",
    "color": "yellow",
    "spoils_in": "1 days 12 hours",
    "comestible_type": "FOOD",
    "symbol": "~",
    "calories": 1200,
    "quench": 4,
    "description": "This is a healthy full meal in a portable container, consisting of a main course, a side and an alcoholic drink. Delicious!",
    "price": 350,
    "price_postapoc": 25,
    "material": [ "veggy", "flesh" ],
    "volume": "1000 ml",
    "stack_size": 1,
    "phase": "liquid",
    "flags": [ "FREEZERBURN", "USE_EAT_VERB", "NO_DROP" ],
    "fun": 4,
    "vitamins": [ [ "iron", 3 ] ]
  },
  {
    "type": "COMESTIBLE",
    "id": "sack_lunch_c",
    "name": { "str": "Caffinated Lunch" },
    "weight": "930 g",
    "color": "yellow",
    "spoils_in": "1 days 12 hours",
    "comestible_type": "FOOD",
    "symbol": "~",
    "calories": 800,
    "fatigue_mod": 60,
    "quench": 10,
    "description": "This is a prepackaged lunch for eating on the road, consisting of a sandwich, a snack and a zippy drink. Nutritious!",
    "price": 350,
    "price_postapoc": 25,
    "material": [ "veggy" ],
    "volume": "1000 ml",
    "stack_size": 1,
    "phase": "liquid",
    "flags": [ "FREEZERBURN", "USE_EAT_VERB", "NO_DROP" ],
    "fun": 4,
    "vitamins": [ [ "iron", 3 ] ]
  },
  {
    "type": "COMESTIBLE",
    "id": "ploughmans_lunch_c",
    "name": { "str": "Caffinated Ploughmans Lunch" },
    "weight": "630 g",
    "color": "yellow",
    "spoils_in": "1 days 12 hours",
    "comestible_type": "FOOD",
    "symbol": "~",
    "calories": 630,
    "fatigue_mod": 60,
    "quench": 10,
    "description": "Also known as the ploughman's platter, a lunch consisting of bread or crackers, cheese, leafy veggies, pickled onion, pickles, meats and a zippy drink. Delicious!",
    "price": 350,
    "price_postapoc": 25,
    "material": [ "veggy", "flesh" ],
    "volume": "1000 ml",
    "stack_size": 1,
    "phase": "liquid",
    "flags": [ "FREEZERBURN", "USE_EAT_VERB", "NO_DROP" ],
    "fun": 4,
    "vitamins": [ [ "iron", 3 ] ]
  },
  {
    "type": "COMESTIBLE",
    "id": "full_meal_c",
    "name": { "str": "Caffinated Full Meal" },
    "weight": "630 g",
    "color": "yellow",
    "spoils_in": "1 days 12 hours",
    "comestible_type": "FOOD",
    "symbol": "~",
    "calories": 1200,
    "fatigue_mod": 60,
    "quench": 10,
    "description": "This is a healthy full meal in a portable container, consisting of a main course, a side and a zippy drink. Delicious!",
    "price": 350,
    "price_postapoc": 25,
    "material": [ "veggy", "flesh" ],
    "volume": "1000 ml",
    "stack_size": 1,
    "phase": "liquid",
    "flags": [ "FREEZERBURN", "USE_EAT_VERB", "NO_DROP" ],
    "fun": 4,
    "vitamins": [ [ "iron", 3 ] ]
  },
  {
    "type": "COMESTIBLE",
    "id": "feast",
    "name": { "str": "Feast" },
    "weight": "630 g",
    "color": "yellow",
    "spoils_in": "1 days 12 hours",
    "comestible_type": "FOOD",
    "symbol": "~",
    "calories": 1200,
    "quench": 10,
    "description": "This is a healthy feast in a portable container, consisting of a main course, two sides, a dessert and a drink. Delicious!",
    "price": 350,
    "price_postapoc": 25,
    "material": [ "veggy", "flesh" ],
    "volume": "1000 ml",
    "stack_size": 1,
    "phase": "liquid",
    "flags": [ "FREEZERBURN", "USE_EAT_VERB", "NO_DROP" ],
    "fun": 4,
    "vitamins": [ [ "iron", 3 ] ]
  },
  {
    "type": "COMESTIBLE",
    "id": "feast_a",
    "name": { "str": "Feast" },
    "weight": "630 g",
    "color": "yellow",
    "use_action": [ "ALCOHOL" ],
    "spoils_in": "1 days 12 hours",
    "comestible_type": "FOOD",
    "symbol": "~",
    "calories": 1200,
    "quench": 10,
    "description": "This is a healthy feast in a portable container, consisting of a main course, two sides, a dessert and a boozy drink. Delicious!",
    "price": 350,
    "price_postapoc": 25,
    "material": [ "veggy", "flesh" ],
    "volume": "1000 ml",
    "stack_size": 1,
    "phase": "liquid",
    "flags": [ "FREEZERBURN", "USE_EAT_VERB", "NO_DROP" ],
    "fun": 4,
    "vitamins": [ [ "iron", 3 ] ]
  },
  {
    "type": "COMESTIBLE",
    "id": "feast_c",
    "name": { "str": "Feast" },
    "weight": "630 g",
    "color": "yellow",
    "spoils_in": "1 days 12 hours",
    "comestible_type": "FOOD",
    "symbol": "~",
    "calories": 1200,
    "fatigue_mod": 60,
    "quench": 10,
    "description": "This is a healthy feast in a portable container, consisting of a main course, two sides, a dessert and a zippy drink. Delicious!",
    "price": 350,
    "price_postapoc": 25,
    "material": [ "veggy", "flesh" ],
    "volume": "1000 ml",
    "stack_size": 1,
    "phase": "liquid",
    "flags": [ "FREEZERBURN", "USE_EAT_VERB", "NO_DROP" ],
    "fun": 4,
    "vitamins": [ [ "iron", 3 ] ]
  },
  {
    "type": "COMESTIBLE",
    "id": "tupperware_sandwich",
    "name": { "str": "Meal Portion(Sandwich)" },
    "weight": "930 g",
    "color": "yellow",
    "spoils_in": "3 days 12 hours",
    "comestible_type": "FOOD",
    "symbol": "~",
    "calories": 800,
    "quench": 10,
    "description": "This is a prepared portion of a meal for inclusion in a sack lunch. All it needs is a drink, desert and sack!",
    "price": 350,
    "price_postapoc": 25,
    "material": [ "veggy" ],
    "volume": "1000 ml",
    "stack_size": 1,
    "phase": "liquid",
    "flags": [ "FREEZERBURN", "USE_EAT_VERB", "NO_DROP" ],
    "fun": 4,
    "vitamins": [ [ "iron", 3 ] ]
  },
  {
    "type": "COMESTIBLE",
    "id": "tupperware_german",
    "name": { "str": "Meal Portion(German)" },
    "weight": "930 g",
    "color": "yellow",
    "spoils_in": "3 days 12 hours",
    "comestible_type": "FOOD",
    "symbol": "~",
    "calories": 800,
    "quench": 10,
    "description": "This is a prepared portion of a meal for inclusion in a sack lunch. All it needs is a drink, desert and sack!",
    "price": 350,
    "price_postapoc": 25,
    "material": [ "veggy" ],
    "volume": "1000 ml",
    "stack_size": 1,
    "phase": "liquid",
    "flags": [ "FREEZERBURN", "USE_EAT_VERB", "NO_DROP" ],
    "fun": 4,
    "vitamins": [ [ "iron", 3 ] ]
  },
  {
    "type": "COMESTIBLE",
    "id": "tupperware_scandinavian",
    "name": { "str": "Meal Portion(Scandinavian)" },
    "weight": "930 g",
    "color": "yellow",
    "spoils_in": "3 days 12 hours",
    "comestible_type": "FOOD",
    "symbol": "~",
    "calories": 800,
    "quench": 10,
    "description": "This is a prepared portion of a meal for inclusion in a sack lunch. All it needs is a drink, desert and sack!",
    "price": 350,
    "price_postapoc": 25,
    "material": [ "veggy" ],
    "volume": "1000 ml",
    "stack_size": 1,
    "phase": "liquid",
    "flags": [ "FREEZERBURN", "USE_EAT_VERB", "NO_DROP" ],
    "fun": 4,
    "vitamins": [ [ "iron", 3 ] ]
  },
  {
    "type": "COMESTIBLE",
    "id": "tupperware_breaded",
    "name": { "str": "Meal Portion(Breaded or Battered)" },
    "weight": "930 g",
    "color": "yellow",
    "spoils_in": "3 days 12 hours",
    "comestible_type": "FOOD",
    "symbol": "~",
    "calories": 800,
    "quench": 10,
    "description": "This is a prepared portion of a meal for inclusion in a sack lunch. All it needs is a drink, desert and sack!",
    "price": 350,
    "price_postapoc": 25,
    "material": [ "veggy" ],
    "volume": "1000 ml",
    "stack_size": 1,
    "phase": "liquid",
    "flags": [ "FREEZERBURN", "USE_EAT_VERB", "NO_DROP" ],
    "fun": 4,
    "vitamins": [ [ "iron", 3 ] ]
  },
  {
    "type": "COMESTIBLE",
    "id": "tupperware_breakfast",
    "name": { "str": "Meal Portion(Breakfast)" },
    "weight": "930 g",
    "color": "yellow",
    "spoils_in": "3 days 12 hours",
    "comestible_type": "FOOD",
    "symbol": "~",
    "calories": 800,
    "quench": 10,
    "description": "This is a prepared portion of a meal for inclusion in a sack lunch. All it needs is a drink, desert and sack!",
    "price": 350,
    "price_postapoc": 25,
    "material": [ "veggy" ],
    "volume": "1000 ml",
    "stack_size": 1,
    "phase": "liquid",
    "flags": [ "FREEZERBURN", "USE_EAT_VERB", "NO_DROP" ],
    "fun": 4,
    "vitamins": [ [ "iron", 3 ] ]
  },
  {
    "type": "COMESTIBLE",
    "id": "tupperware_ukraine",
    "name": { "str": "Meal Portion(Ukrainian)" },
    "weight": "930 g",
    "color": "yellow",
    "spoils_in": "3 days 12 hours",
    "comestible_type": "FOOD",
    "symbol": "~",
    "calories": 800,
    "quench": 10,
    "description": "This is a prepared portion of a meal for inclusion in a sack lunch. All it needs is a drink, desert and sack!",
    "price": 350,
    "price_postapoc": 25,
    "material": [ "veggy" ],
    "volume": "1000 ml",
    "stack_size": 1,
    "phase": "liquid",
    "flags": [ "FREEZERBURN", "USE_EAT_VERB", "NO_DROP" ],
    "fun": 4,
    "vitamins": [ [ "iron", 3 ] ]
  },
  {
    "type": "COMESTIBLE",
    "id": "tupperware_casserole",
    "name": { "str": "Meal Portion(Casserole)" },
    "weight": "930 g",
    "color": "yellow",
    "spoils_in": "3 days 12 hours",
    "comestible_type": "FOOD",
    "symbol": "~",
    "calories": 800,
    "quench": 10,
    "description": "This is a prepared portion of a meal for inclusion in a sack lunch. All it needs is a drink, desert and sack!",
    "price": 350,
    "price_postapoc": 25,
    "material": [ "veggy" ],
    "volume": "1000 ml",
    "stack_size": 1,
    "phase": "liquid",
    "flags": [ "FREEZERBURN", "USE_EAT_VERB", "NO_DROP" ],
    "fun": 4,
    "vitamins": [ [ "iron", 3 ] ]
  },
  {
    "type": "COMESTIBLE",
    "id": "tupperware_pasta",
    "name": { "str": "Meal Portion(Pasta)" },
    "weight": "930 g",
    "color": "yellow",
    "spoils_in": "3 days 12 hours",
    "comestible_type": "FOOD",
    "symbol": "~",
    "calories": 800,
    "quench": 10,
    "description": "This is a prepared portion of a meal for inclusion in a sack lunch. All it needs is a drink, desert and sack!",
    "price": 350,
    "price_postapoc": 25,
    "material": [ "veggy" ],
    "volume": "1000 ml",
    "stack_size": 1,
    "phase": "liquid",
    "flags": [ "FREEZERBURN", "USE_EAT_VERB", "NO_DROP" ],
    "fun": 4,
    "vitamins": [ [ "iron", 3 ] ]
  },
  {
    "type": "COMESTIBLE",
    "id": "tupperware_chineese",
    "name": { "str": "Meal Portion(Chineese)" },
    "weight": "930 g",
    "color": "yellow",
    "spoils_in": "3 days 12 hours",
    "comestible_type": "FOOD",
    "symbol": "~",
    "calories": 800,
    "quench": 10,
    "description": "This is a prepared portion of a meal for inclusion in a sack lunch. All it needs is a drink, desert and sack!",
    "price": 350,
    "price_postapoc": 25,
    "material": [ "veggy" ],
    "volume": "1000 ml",
    "stack_size": 1,
    "phase": "liquid",
    "flags": [ "FREEZERBURN", "USE_EAT_VERB", "NO_DROP" ],
    "fun": 4,
    "vitamins": [ [ "iron", 3 ] ]
  },
  {
    "type": "COMESTIBLE",
    "id": "tupperware_middleeast",
    "name": { "str": "Meal Portion(Middle East)" },
    "weight": "930 g",
    "color": "yellow",
    "spoils_in": "3 days 12 hours",
    "comestible_type": "FOOD",
    "symbol": "~",
    "calories": 800,
    "quench": 10,
    "description": "This is a prepared portion of a meal for inclusion in a sack lunch. All it needs is a drink, desert and sack!",
    "price": 350,
    "price_postapoc": 25,
    "material": [ "veggy" ],
    "volume": "1000 ml",
    "stack_size": 1,
    "phase": "liquid",
    "flags": [ "FREEZERBURN", "USE_EAT_VERB", "NO_DROP" ],
    "fun": 4,
    "vitamins": [ [ "iron", 3 ] ]
  },
  {
    "type": "COMESTIBLE",
    "id": "tupperware_english",
    "name": { "str": "Meal Portion(English)" },
    "weight": "930 g",
    "color": "yellow",
    "spoils_in": "3 days 12 hours",
    "comestible_type": "FOOD",
    "symbol": "~",
    "calories": 800,
    "quench": 10,
    "description": "This is a prepared portion of a meal for inclusion in a sack lunch. All it needs is a drink, desert and sack!",
    "price": 350,
    "price_postapoc": 25,
    "material": [ "veggy" ],
    "volume": "1000 ml",
    "stack_size": 1,
    "phase": "liquid",
    "flags": [ "FREEZERBURN", "USE_EAT_VERB", "NO_DROP" ],
    "fun": 4,
    "vitamins": [ [ "iron", 3 ] ]
  },
  {
    "type": "COMESTIBLE",
    "id": "tupperware_soup",
    "name": { "str": "Meal Portion(Soup)" },
    "weight": "930 g",
    "color": "yellow",
    "spoils_in": "3 days 12 hours",
    "comestible_type": "FOOD",
    "symbol": "~",
    "calories": 800,
    "quench": 10,
    "description": "This is a prepared portion of a meal for inclusion in a sack lunch. All it needs is a drink, desert and sack!",
    "price": 350,
    "price_postapoc": 25,
    "material": [ "veggy" ],
    "volume": "1000 ml",
    "stack_size": 1,
    "phase": "liquid",
    "flags": [ "FREEZERBURN", "USE_EAT_VERB", "NO_DROP" ],
    "fun": 4,
    "vitamins": [ [ "iron", 3 ] ]
  },
  {
    "type": "COMESTIBLE",
    "id": "tupperware_veggie",
    "name": { "str": "Meal Portion(Veggie)" },
    "weight": "930 g",
    "color": "yellow",
    "spoils_in": "3 days 12 hours",
    "comestible_type": "FOOD",
    "symbol": "~",
    "calories": 800,
    "quench": 10,
    "description": "This is a prepared portion of a meal for inclusion in a sack lunch. All it needs is a drink, desert and sack!",
    "price": 350,
    "price_postapoc": 25,
    "material": [ "veggy" ],
    "volume": "1000 ml",
    "stack_size": 1,
    "phase": "liquid",
    "flags": [ "FREEZERBURN", "USE_EAT_VERB", "NO_DROP" ],
    "fun": 4,
    "vitamins": [ [ "iron", 3 ] ]
  },
  {
    "type": "COMESTIBLE",
    "id": "tupperware_indian",
    "name": { "str": "Meal Portion(Indian)" },
    "weight": "930 g",
    "color": "yellow",
    "spoils_in": "3 days 12 hours",
    "comestible_type": "FOOD",
    "symbol": "~",
    "calories": 800,
    "quench": 10,
    "description": "This is a prepared portion of a meal for inclusion in a sack lunch. All it needs is a drink, desert and sack!",
    "price": 350,
    "price_postapoc": 25,
    "material": [ "veggy" ],
    "volume": "1000 ml",
    "stack_size": 1,
    "phase": "liquid",
    "flags": [ "FREEZERBURN", "USE_EAT_VERB", "NO_DROP" ],
    "fun": 4,
    "vitamins": [ [ "iron", 3 ] ]
  },
  {
    "type": "COMESTIBLE",
    "id": "tupperware_mexican",
    "name": { "str": "Meal Portion(Mexican)" },
    "weight": "930 g",
    "color": "yellow",
    "spoils_in": "3 days 12 hours",
    "comestible_type": "FOOD",
    "symbol": "~",
    "calories": 800,
    "quench": 10,
    "description": "This is a prepared portion of a meal for inclusion in a sack lunch. All it needs is a drink, desert and sack!",
    "price": 350,
    "price_postapoc": 25,
    "material": [ "veggy" ],
    "volume": "1000 ml",
    "stack_size": 1,
    "phase": "liquid",
    "flags": [ "FREEZERBURN", "USE_EAT_VERB", "NO_DROP" ],
    "fun": 4,
    "vitamins": [ [ "iron", 3 ] ]
  },
  {
    "type": "COMESTIBLE",
    "id": "tupperware_main",
    "name": { "str": "Meal Portion(Main Portion)" },
    "weight": "930 g",
    "color": "yellow",
    "spoils_in": "3 days 12 hours",
    "comestible_type": "FOOD",
    "symbol": "~",
    "calories": 800,
    "quench": 10,
    "description": "This is a prepared portion of a meal for inclusion in a sack lunch. All it needs is a drink, desert and sack!",
    "price": 350,
    "price_postapoc": 25,
    "material": [ "veggy" ],
    "volume": "1000 ml",
    "stack_size": 1,
    "phase": "liquid",
    "flags": [ "FREEZERBURN", "USE_EAT_VERB", "NO_DROP" ],
    "fun": 4,
    "vitamins": [ [ "iron", 3 ] ]
  }
]
