[
  {
    "type": "COMESTIBLE",
    "id": "african_peanut_stew",
    "name": { "str": "African Peanut Stew" },
    "weight": "538 g",
    "color": "red",
    "spoils_in": "4 day",
    "comestible_type": "FOOD",
    "symbol": "%",
    "quench": 10,
    "calories": 3228,
    "healthy": 2,
    "description": "a delicious stew with peanut butter, potatoes, cumin, corainder and various beans.",
    "price": 1600,
    "price_postapoc": 200,
    "material": [ "wheat" ],
    "volume": "1000 ml",
    "stack_size": 6,
    "phase": "liquid",
    "flags": [ "USE_EAT_VERB" ],
    "vitamins": [ [ "calcium", 15 ], [ "iron", 17 ], [ "vitC", 54 ] ],
    "fun": 10
  },
  {
    "type": "COMESTIBLE",
    "id": "mashed_potatoes",
    "name": { "str": "Mashed Potatoes" },
    "weight": "538 g",
    "color": "red",
    "spoils_in": "2 day",
    "comestible_type": "FOOD",
    "symbol": "%",
    "quench": 0,
    "calories": 1032,
    "healthy": 2,
    "description": "Some spiced and mashed potatoes. Great with any meal!",
    "price": 1600,
    "price_postapoc": 200,
    "material": [ "veggy" ],
    "volume": "1000 ml",
    "stack_size": 4,
    "fun": 5
  },
  {
    "type": "COMESTIBLE",
    "id": "dressed_veggy_salad",
    "name": { "str": "dressed vegetable salad" },
    "weight": "227 g",
    "color": "green",
    "spoils_in": "5 days 20 hours",
    "container": "bowl_plastic",
    "comestible_type": "FOOD",
    "symbol": "%",
    "quench": 15,
    "healthy": 2,
    "calories": 310,
    "description": "Tasty salad with all kind of vegetables. Fully clothed.",
    "price": 350,
    "price_postapoc": 100,
    "material": [ "veggy" ],
    "volume": "250 ml",
    "fun": 1,
    "flags": [ "FREEZERBURN" ],
    "vitamins": [ [ "vitC", 30 ], [ "calcium", 6 ], [ "iron", 10 ] ]
  },
  {
    "type": "COMESTIBLE",
    "id": "borscht",
    "name": { "str_sp": "Borscht" },
    "weight": "500 g",
    "color": "green",
    "spoils_in": "2 day",
    "comestible_type": "DRINK",
    "symbol": "~",
    "quench": 10,
    "calories": 980,
    "description": "A tasty Eastern European soup using beets, carrots and onion.",
    "price": 70,
    "price_postapoc": 150,
    "material": [ "veggy" ],
    "volume": "250 ml",
    "stack_size": 2,
    "phase": "liquid",
    "vitamins": [ [ "iron", 7 ] ],
    "fun": 1
  },
  {
    "type": "COMESTIBLE",
    "id": "fava_beans_roman",
    "name": { "str": "Fava Beans Roman Style" },
    "weight": "538 g",
    "color": "red",
    "spoils_in": "2 day",
    "comestible_type": "FOOD",
    "symbol": "%",
    "quench": 0,
    "calories": 1032,
    "healthy": 2,
    "parasites": 0,
    "description": "Fava beans made in roman tradition.",
    "price": 1600,
    "price_postapoc": 200,
    "material": [ "veggy" ],
    "volume": "1000 ml",
    "stack_size": 4,
    "fun": 5
  },
  {
    "type": "COMESTIBLE",
    "id": "dal",
    "name": { "str": "Dal" },
    "weight": "538 g",
    "color": "red",
    "spoils_in": "2 day",
    "comestible_type": "FOOD",
    "symbol": "%",
    "quench": 0,
    "calories": 1032,
    "healthy": 2,
    "parasites": 0,
    "description": "Indian dish made from cooked lentils, tomatoes and lots of spices. Even the smell gives you a warm, homey feeling.",
    "price": 1600,
    "price_postapoc": 200,
    "material": [ "veggy" ],
    "volume": "1000 ml",
    "stack_size": 4,
    "fun": 5
  },
  {
    "type": "COMESTIBLE",
    "id": "cauliflower_white_sauce",
    "name": { "str": "Cauliflower in a white sauce" },
    "weight": "538 g",
    "color": "red",
    "spoils_in": "3 day",
    "comestible_type": "FOOD",
    "symbol": "%",
    "quench": 0,
    "calories": 1032,
    "healthy": 2,
    "parasites": 0,
    "description": "Roasted cauliflower in a white sauce. Delicious!",
    "price": 1600,
    "price_postapoc": 200,
    "material": [ "veggy" ],
    "volume": "1000 ml",
    "stack_size": 4,
    "fun": 5
  },
  {
    "type": "COMESTIBLE",
    "id": "cauliflower_scalloped",
    "name": { "str": "Scalloped Cauliflower" },
    "weight": "538 g",
    "color": "red",
    "spoils_in": "2 day",
    "comestible_type": "FOOD",
    "symbol": "%",
    "quench": 0,
    "calories": 1032,
    "healthy": 2,
    "parasites": 0,
    "description": "Roasted cauliflower in a white sauce, baked with additional spices and a wonderful breadcrumb and cheese crust. Delicious!",
    "price": 1600,
    "price_postapoc": 200,
    "material": [ "veggy" ],
    "volume": "1000 ml",
    "stack_size": 4,
    "fun": 5
  },
  {
    "type": "COMESTIBLE",
    "id": "braised_leeks",
    "name": { "str": "Braised Leeks" },
    "weight": "538 g",
    "color": "red",
    "spoils_in": "2 day",
    "comestible_type": "FOOD",
    "symbol": "%",
    "quench": 0,
    "calories": 1032,
    "healthy": 2,
    "parasites": 0,
    "description": "Braised leeks served with a delicious dressing.",
    "price": 1600,
    "price_postapoc": 200,
    "material": [ "veggy" ],
    "volume": "1000 ml",
    "stack_size": 4,
    "fun": 5
  },
  {
    "type": "COMESTIBLE",
    "id": "creamed_leeks",
    "name": { "str": "creamed leeks" },
    "weight": "538 g",
    "color": "red",
    "spoils_in": "2 day",
    "comestible_type": "FOOD",
    "symbol": "%",
    "quench": 0,
    "calories": 1032,
    "healthy": 2,
    "parasites": 0,
    "description": "A delicious white sauce made with wine and leeks.",
    "price": 1600,
    "price_postapoc": 200,
    "material": [ "veggy" ],
    "volume": "1000 ml",
    "stack_size": 4,
    "fun": 5
  },
  {
    "type": "COMESTIBLE",
    "id": "relish_eggplant",
    "name": { "str": "eggplant relish" },
    "weight": "538 g",
    "color": "red",
    "spoils_in": "2 day",
    "comestible_type": "FOOD",
    "symbol": "%",
    "quench": 0,
    "calories": 1032,
    "healthy": 2,
    "parasites": 0,
    "description": "A tasty relish made from eggplants.",
    "price": 1600,
    "price_postapoc": 200,
    "material": [ "veggy" ],
    "volume": "1000 ml",
    "stack_size": 4,
    "fun": 5
  },
  {
    "type": "COMESTIBLE",
    "id": "roasted_eggplant",
    "name": { "str": "roasted eggplant" },
    "weight": "538 g",
    "color": "red",
    "spoils_in": "2 day",
    "comestible_type": "FOOD",
    "symbol": "%",
    "quench": 0,
    "calories": 1032,
    "healthy": 2,
    "parasites": 0,
    "description": "Oven roasted eggplant with liberal toppings of garlic. Yum!.",
    "price": 1600,
    "price_postapoc": 200,
    "material": [ "veggy" ],
    "volume": "1000 ml",
    "stack_size": 4,
    "fun": 5
  },
  {
    "type": "COMESTIBLE",
    "id": "veggies_in_a_basket",
    "name": { "str": "veggies in a basket" },
    "weight": "538 g",
    "color": "red",
    "spoils_in": "2 day",
    "comestible_type": "FOOD",
    "symbol": "%",
    "quench": 0,
    "calories": 1032,
    "healthy": 2,
    "parasites": 0,
    "description": "Buttered pan-fried bread with sauteed veggies in the center. Yum!.",
    "price": 1600,
    "price_postapoc": 200,
    "material": [ "veggy" ],
    "volume": "1000 ml",
    "stack_size": 4,
    "fun": 5
  },
  {
    "type": "COMESTIBLE",
    "id": "cab_np",
    "name": { "str_sp": "Cabbage Nakyplyak" },
    "weight": "254 g",
    "color": "green",
    "spoils_in": "2 day",
    "comestible_type": "DRINK",
    "symbol": "~",
    "quench": 10,
    "calories": 1980,
    "description": "A tasty cabbage based steamed pudding from Ukraine.",
    "price": 70,
    "price_postapoc": 150,
    "material": [ "veggy" ],
    "volume": "250 ml",
    "stack_size": 2,
    "phase": "liquid",
    "vitamins": [ [ "iron", 7 ] ],
    "fun": 1
  },
  {
    "type": "COMESTIBLE",
    "id": "pesto",
    "name": { "str": "pesto sauce" },
    "weight": "538 g",
    "color": "red",
    "spoils_in": "2 day",
    "comestible_type": "FOOD",
    "symbol": "%",
    "quench": 0,
    "calories": 1032,
    "healthy": 2,
    "parasites": 0,
    "description": "A tasty sauce made of pine nuts, parmesan and spices.",
    "price": 1600,
    "price_postapoc": 200,
    "material": [ "veggy" ],
    "volume": "1000 ml",
    "stack_size": 4,
    "fun": 5
  },
  {
    "type": "COMESTIBLE",
    "id": "sdtpesto",
    "name": { "str": "sun dreid tomato pesto sauce" },
    "weight": "538 g",
    "color": "red",
    "spoils_in": "2 day",
    "comestible_type": "FOOD",
    "symbol": "%",
    "quench": 0,
    "calories": 1032,
    "healthy": 2,
    "parasites": 0,
    "description": "A tasty sauce made of pine nuts, parmesan and spices.",
    "price": 1600,
    "price_postapoc": 200,
    "material": [ "veggy" ],
    "volume": "1000 ml",
    "stack_size": 4,
    "fun": 6
  },
  {
    "type": "COMESTIBLE",
    "id": "pistou",
    "name": { "str": "pistou" },
    "weight": "538 g",
    "color": "red",
    "spoils_in": "2 day",
    "comestible_type": "FOOD",
    "symbol": "%",
    "quench": 0,
    "calories": 1032,
    "healthy": 2,
    "parasites": 0,
    "description": "A tasty sauce made of various spices suspended in oil.",
    "price": 1600,
    "price_postapoc": 200,
    "material": [ "veggy" ],
    "volume": "1000 ml",
    "stack_size": 4,
    "fun": 5
  },
  {
    "type": "COMESTIBLE",
    "id": "parsley_stuffing",
    "name": { "str": "parsley and bread stuffing" },
    "weight": "538 g",
    "color": "red",
    "spoils_in": "2 day",
    "comestible_type": "FOOD",
    "symbol": "%",
    "quench": 0,
    "calories": 1032,
    "healthy": 2,
    "parasites": 0,
    "description": "Tasty parsley flavored stuffing. Yum!",
    "price": 1600,
    "price_postapoc": 200,
    "material": [ "veggy" ],
    "volume": "1000 ml",
    "stack_size": 4,
    "fun": 5
  },
  {
    "type": "COMESTIBLE",
    "id": "refried_beans",
    "name": { "str": "refried beans" },
    "weight": "538 g",
    "color": "red",
    "spoils_in": "2 day",
    "comestible_type": "FOOD",
    "symbol": "%",
    "quench": 0,
    "calories": 1032,
    "healthy": 2,
    "parasites": 0,
    "description": "Fried beans, named refried due to a translation error. Great on their own or in tacos and burritos. Yum!",
    "price": 1600,
    "price_postapoc": 200,
    "material": [ "veggy" ],
    "volume": "500 ml",
    "stack_size": 8,
    "fun": 5
  },
  {
    "type": "COMESTIBLE",
    "id": "tuscan_baked_beans",
    "name": { "str": "tuscan baked beans" },
    "weight": "538 g",
    "color": "red",
    "spoils_in": "2 day",
    "comestible_type": "FOOD",
    "symbol": "%",
    "quench": 0,
    "calories": 1032,
    "healthy": 2,
    "parasites": 0,
    "description": "Baked beans, Tuscan style. Delicious.",
    "price": 1600,
    "price_postapoc": 200,
    "material": [ "veggy" ],
    "volume": "500 ml",
    "stack_size": 6,
    "fun": 5
  },
  {
    "type": "COMESTIBLE",
    "id": "creamed_corn",
    "name": { "str": "creamed corn" },
    "weight": "538 g",
    "color": "red",
    "spoils_in": "2 day",
    "comestible_type": "FOOD",
    "symbol": "%",
    "quench": 0,
    "calories": 1032,
    "healthy": 2,
    "parasites": 0,
    "description": "Tasty creamed corn - makes a delicious side.",
    "price": 1600,
    "price_postapoc": 200,
    "material": [ "veggy" ],
    "volume": "500 ml",
    "stack_size": 4,
    "fun": 5
  },
  {
    "type": "COMESTIBLE",
    "id": "pastawsauce",
    "name": { "str_sp": "Pasta with sauce" },
    "weight": "150 g",
    "color": "red",
    "spoils_in": "2 days",
    "comestible_type": "FOOD",
    "symbol": "%",
    "healthy": 1,
    "calories": 226,
    "description": "Spaghetti covered with a thick sauce.  What's the sauce? It's up to you!",
    "price": 1000,
    "price_postapoc": 1200,
    "material": [ "wheat", "flesh" ],
    "volume": "1750 ml",
    "stack_size": 8,
    "flags": [ "EATEN_HOT", "FREEZERBURN" ],
    "fun": 4,
    "vitamins": [ [ "vitC", 5 ], [ "calcium", 3 ], [ "iron", 9 ] ]
  },
  {
    "type": "COMESTIBLE",
    "id": "marinara_sauce",
    "name": { "str": "Marinara Sauce" },
    "weight": "538 g",
    "color": "red",
    "spoils_in": "2 day",
    "comestible_type": "FOOD",
    "symbol": "%",
    "quench": 0,
    "calories": 1032,
    "healthy": 2,
    "parasites": 0,
    "description": "A tasty tomato-based sauce.",
    "price": 1600,
    "price_postapoc": 200,
    "material": [ "veggy" ],
    "volume": "1000 ml",
    "stack_size": 4,
    "fun": 5
  },
  {
    "type": "COMESTIBLE",
    "id": "garlic_walnut",
    "name": { "str": "Garlic Walnut sauce" },
    "weight": "538 g",
    "color": "red",
    "spoils_in": "2 day",
    "comestible_type": "FOOD",
    "symbol": "%",
    "quench": 0,
    "calories": 1032,
    "healthy": 2,
    "parasites": 0,
    "description": "A tasty tomato-based sauce.",
    "price": 1600,
    "price_postapoc": 200,
    "material": [ "veggy" ],
    "volume": "1000 ml",
    "stack_size": 4,
    "fun": 5
  },
  {
    "type": "COMESTIBLE",
    "id": "peanut_sauce",
    "name": { "str": "Peanut Sauce" },
    "weight": "538 g",
    "color": "red",
    "spoils_in": "2 day",
    "comestible_type": "FOOD",
    "symbol": "%",
    "quench": 0,
    "calories": 1032,
    "healthy": 2,
    "parasites": 0,
    "description": "A aisian style peanut sauce. Great for stir fries and dipping.",
    "price": 1600,
    "price_postapoc": 200,
    "material": [ "veggy" ],
    "volume": "1000 ml",
    "stack_size": 4,
    "fun": 5
  },
  {
    "type": "COMESTIBLE",
    "id": "brown_sauce",
    "name": { "str": "Brown Sauce" },
    "weight": "538 g",
    "color": "red",
    "spoils_in": "2 day",
    "comestible_type": "FOOD",
    "symbol": "%",
    "quench": 0,
    "calories": 1032,
    "healthy": 2,
    "parasites": 0,
    "description": "A stock style sauce used on meats, vegtables and as a dip.",
    "price": 1600,
    "price_postapoc": 200,
    "material": [ "veggy" ],
    "volume": "1000 ml",
    "stack_size": 4,
    "fun": 5
  },
  {
    "type": "COMESTIBLE",
    "id": "royal_msteaks",
    "name": { "str_sp": "royal shitake steak" },
    "weight": "446 g",
    "color": "white",
    "spoils_in": "3 days 8 hours",
    "comestible_type": "FOOD",
    "symbol": "%",
    "calories": 423,
    "description": "A shitake mushroom steak coated with carmalized royal jelly.  It's a lot like a honey-baked ham.",
    "price": 21000,
    "price_postapoc": 4500,
    "material": [ "veggy" ],
    "volume": "500 ml",
    "fun": 7,
    "vitamins": [ [ "vitC", 4 ], [ "calcium", 6 ], [ "iron", 69 ] ]
  }
]
