[
  {
    "result": "biodiesel",
    "type": "recipe",
    "activity_level": "NO_EXERCISE",
    "category": "CC_CHEM",
    "subcategory": "CSC_CHEM_FUEL",
    "byproducts": [ [ "chem_glycerol", 4 ] ],
    "skill_used": "chemistry",
    "difficulty": 5,
    "result_mult": 4,
    "time": "420 m",
    "book_learn": [ [ "textbook_biodiesel", 5 ] ],
    "batch_time_factors": [ 99, 1 ],
    "qualities": [ { "id": "CHEM", "level": 2 } ],
    "tools": [ [ [ "surface_heat", 100, "LIST" ] ] ],
    "components": [
      [ [ "water_clean", 4 ], [ "water", 4 ] ],
      [ [ "chem_ethanol", 100 ], [ "chem_methanol", 100 ], [ "denat_alcohol", 100 ] ],
      [ [ "lye_powder", 8 ] ],
      [
        [ "cooking_oil", 64 ],
        [ "cooking_oil2", 64 ],
        [ "edible_tallow_lard", 8, "LIST" ],
        [ "tallow_tainted", 8 ],
        [ "any_fat", 16, "LIST" ],
        [ "lamp_oil", 1000 ],
        [ "oil_olive", 64],
        [ "oil_evoo", 64],
        [ "oil_palm", 64],
        [ "oil_peanut", 64],
        [ "oil_sesame", 64],
        [ "oil_canola", 64],
        [ "motor_oil", 1000 ]
      ]
    ],
    "flags": [ "ALLOW_ROTTEN" ]
  }
]
