[
    {
        "id": "blood_stable",
        "type": "AMMO",
        "copy-from": "meat_tainted",
        "name": { "str_sp": "stabalized blood" },
        "description": "Blood that's been stabalized with Sodium Citrate.  Don't eat it.",
        "looks_like": "blood",
        "symbol": "~",
        "material": "blood",
        "phase": "liquid",
        "delete": { "flags": [ "SMOKABLE" ] }
    },
    {
        "type": "AMMO",
        "id": "bone_ash",
        "category": "chems",
        "price": 500,
        "price_postapoc": 500,
        "name": { "str_sp": "bone ash" },
        "symbol": "=",
        "color": "white",
        "description": "This white powder is the remanents of bones that have been carefully burned at high temperature then ground to a powder. Useful for arcane rituals, or making wine(if you're a psychopath).",
        "material": [ "powder" ],
        "volume": "250 ml",
        "weight": "1760 mg",
         
        "ammo_type": "components",
        "container": "bag_plastic",
        "count": 100
      },
      {
          "type": "AMMO",
          "id": "door_tar",
          "category": "chems",
          "price": 5,
          "price_postapoc": 5,
          "name": { "str_sp": "door tar" },
          "symbol": "=",
          "color": "white",
          "description": "According to the CHIMTHORIUM - \"The only proper way to seal the portal to the plane of Al-Gannur is a liberal and regular coating of DOOR TAR, made by mixing one part BONE ASH, one part WHALE OIL and one part BLOOD. It should be noted that any blood from man or beast will work for this concoction, excepting of course the blood of elder things, which will only reinforce the gash. Gashes form when any man made portal is struck by the particular season of WANT, when the planets align with the APEX and MERCURY has fallen sallow. Be warned - stepping through any gash will lead to the user entering the domain of the nether things, and may invoke the notice of the dreamers, and things left best not mentioned on paper.\" Spooky.",
          "material": [ "powder" ],
          "volume": "250 ml",
          "weight": "1760 mg",
           
          "ammo_type": "components",
          "container": "bag_plastic",
          "count": 100
        },
        {
            "type": "AMMO",
            "id": "ref_aether",
            "category": "chems",
            "price": 5,
            "price_postapoc": 5,
            "name": { "str_sp": "refined aether" },
            "symbol": "=",
            "color": "white",
            "description": "Small, fiberous crystals scraped of The Great Seal during a regular ritual. As you've learned the whole thing about having to do this daily is bubkus - you can just manufacture Aether whenever you want, and no elder god is going to push through your disgusting and thuroughly unusable door at an inopertune moment. Still, the crystals catalizing on the tar does say that some magical effect is at work here, and using the CHIMTHORIUM, you figure it might be a fairly profitable one.",
            "material": [ "powder" ],
            "volume": "250 ml",
            "weight": "1760 mg",
             
            "ammo_type": "components",
            "container": "bag_plastic",
            "count": 100
          }
]