[
  {
    "id": "whaletrap",
    "type": "TOOL",
    "name": { "str": "Whale Oil Trap" },
    "description": "This trap uses the disabled canister from a clockwork soldier and has been filled with highly explosive whale oil. Be careul - this will go off with one heck of a bang. Fire extinguisher recommended.",
    "weight": "14000 g",
    "volume": "1500 ml",
    "price": 6000,
    "price_postapoc": 1000,
    "to_hit": -2,
    "material": [ "steel" ],
    "symbol": ";",
    "color": "light_gray",
    "use_action": {
      "type": "place_trap",
      "allow_underwater": true,
      "trap": "tr_whaletrap",
      "moves": 200,
      "practice": 4,
      "done_message": "You move the magnetic pin and set the trap.  Better skedadle."
    }
  },
  {
    "id": "whaletrap_r",
    "type": "TOOL",
    "name": { "str": "Refined Whale Oil Trap" },
    "description": "This trap uses the disabled canister from a clockwork soldier and has been filled with highly explosive refined whale oil. Be careful - this will go off with one heck of a bang. Fire extinguisher recommended.",
    "weight": "14000 g",
    "volume": "1500 ml",
    "price": 6000,
    "price_postapoc": 1000,
    "to_hit": -2,
    "material": [ "steel" ],
    "symbol": ";",
    "color": "light_gray",
    "use_action": {
      "type": "place_trap",
      "allow_underwater": true,
      "trap": "tr_whaletrap_r",
      "moves": 200,
      "practice": 4,
      "done_message": "You move the magnetic pin and set the trap.  Better skedadle."
    }
  }
]
