[
  {
    "type": "overmap_special",
    "id": "RCMP_stat",
    "overmaps": [
      { "point": [ 0, 0, 0 ], "overmap": "rcmp_stata_north" },
	  { "point": [ 0, 0, 1 ], "overmap": "rcmp_statb_north" }
    ],
    "connections": [ { "point": [ 0, -1, 0 ],  "terrain": "road" } ],
    "locations": [ "land", "swamp" ],
    "city_distance": [ 5, -1 ],
    "occurrences": [ 0, 2 ],
	"flags": [ "WILDERNESS", "UNIQUE" ]
  }
]