[
  {
    "type": "overmap_terrain",
    "id": "rcmp_stata" ,
    "name": "Converted Shelter",
	"copy-from": "generic_open_land",
    "sym": "S",
    "color": "brown",
    "see_cost": 1
  },
  {
    "type": "overmap_terrain",
    "id": "rcmp_statb",
    "name": "Converted Shelter Roof",
	"copy-from": "generic_open_land",
    "sym": "S",
    "color": "brown",
    "see_cost": 1
  }
]