[
    {
    "type": "GENERIC",
    "id": "sorost1_p",
    "symbol": ";",
    "color": "dark_gray",
    "name": { "str": "Soros Server Box" },
    "description": "This is a large box labled 'Soros TS557 Gen5 Server' - looks like it was ready for delivery before the cataclysm hit. Their loss is your gain.",
    "price": 0,
    "price_postapoc": 10000,
    "material": [ "aluminum", "plastic" ],
    "weight": "15857 g",
    "volume": "15 L",
    "longest_side": "76 cm", 
     
    "to_hit": -5,
    "flags": [ "FRAGILE_MELEE" ]
    },
    {
    "type": "GENERIC",
    "id": "dorbyt1_p",
    "symbol": ";",
    "color": "dark_gray",
    "name": { "str": "Dorby D17 ISL Database Server(boxed)" },
    "description": "This is a large box labled 'Dorby D17 ISL Database Server' - looks like it was ready for delivery before the cataclysm hit. Their loss is your gain.",
    "price": 0,
    "price_postapoc": 10000,
    "material": [ "aluminum", "plastic" ],
    "weight": "28857 g",
    "volume": "29 L",
    "longest_side": "76 cm", 
     
    "to_hit": -5,
    "flags": [ "FRAGILE_MELEE" ]
    },
    {
    "type": "GENERIC",
    "id": "soronw_p",
    "symbol": ",",
    "color": "light_gray",
    "name": { "str": "Soros 6-port Network Switch(boxed)" },
    "description": "A small 6 port network switch, the size of a toaster. It's one of the few dummy switches left that don't need to connect to some service. It's still in its original box.",
    "price": 1000,
    "price_postapoc": 10,
    "material": [ "aluminum", "plastic" ],
    "weight": "730 g",
    "volume": "760 ml"
    },
    {
    "type": "GENERIC",
    "id": "toaster_p",
    "symbol": ",",
    "color": "light_gray",
    "name": { "str": "boxed toaster" },
    "description": "This box contains a generic two slice toaster, labled OWNBRAND. This just oozes quality... or something, at least.",
    "price": 1000,
    "price_postapoc": 10,
    "material": [ "aluminum", "plastic" ],
    "weight": "745 g",
    "volume": "770 ml"
    },
    {
    "type": "GENERIC",
    "id": "microwave_p",
    "symbol": ",",
    "color": "light_gray",
    "name": { "str": "boxed microwave" },
    "description": "This box contains a generic microwave, labled OWNBRAND. This just oozes quality... or something, at least.",
    "price": 1000,
    "price_postapoc": 10,
    "material": [ "steel", "plastic" ],
    "weight": "11539 g",
    "volume": "9100 ml"
    },
    {
    "type": "GENERIC",
    "id": "television_p",
    "symbol": ";",
    "color": "dark_gray",
    "name": { "str": "boxed television" },
    "description": "A large LCD television, labled OWNBRAND. This just oozes quality... or something, at least.",
    "price": 0,
    "price_postapoc": 10,
    "material": [ "aluminum", "plastic" ],
    "weight": "15000 g",
    "volume": "20 L",
     
    "to_hit": -5
    },
    {
    "type": "GENERIC",
    "id": "paper_p",
    "name": { "str": "printer paper pack" },
    "category": "spare_parts",
    "weight": "300 g",
    "color": "white",
    "symbol": "`",
    "description": "This is a pack of printer paper. Dissasemble to collect paper",
    "price": 0,
    "price_postapoc": 0,
    "material": [ "paper" ],
    "volume": "600 ml",
    "longest_side": "297 mm"
    },
    {
    "type": "GENERIC",
    "id": "paper_box",
    "name": { "str": "Box of printer paper" },
    "category": "spare_parts",
    "weight": "300 g",
    "color": "white",
    "symbol": "`",
    "description": "This is a sealed box of printer paper. Dissasemble to collect the packs of paper. Damn capitalism... such waste.",
    "price": 0,
    "price_postapoc": 0,
    "material": [ "paper" ],
    "volume": "600 ml",
    "longest_side": "297 mm"
    },
    {
    "result": "paper_box",
    "type": "uncraft",
    "activity_level": "LIGHT_EXERCISE",
    "time": "6 m",
    "qualities": [ { "id": "CUT", "level": 1 } ],
    "components": [
      [ [ "paper_p", 10 ] ]
    ]
    },
    {
    "result": "paper_p",
    "type": "uncraft",
    "activity_level": "LIGHT_EXERCISE",
    "time": "6 m",
    "qualities": [ { "id": "CUT", "level": 1 } ],
    "components": [
      [ [ "cardboard", 125 ] ],
      [ [ "paper", 101 ] ]
    ]
    },
    {
    "result": "television_p",
    "type": "uncraft",
    "activity_level": "LIGHT_EXERCISE",
    "time": "6 m",
    "qualities": [ { "id": "CUT", "level": 1 } ],
    "components": [
      [ [ "television", 1 ] ],
      [ [ "cardboard", 125 ] ],
      [ [ "material_styrofoam", 200 ] ],
      [ [ "bag_plastic", 4 ] ]
    ]
    },
    {
    "result": "microwave_p",
    "type": "uncraft",
    "activity_level": "LIGHT_EXERCISE",
    "time": "6 m",
    "qualities": [ { "id": "CUT", "level": 1 } ],
    "components": [
      [ [ "microwave", 1 ] ],
      [ [ "cardboard", 50 ] ],
      [ [ "material_styrofoam", 20 ] ],
      [ [ "bag_plastic", 1 ] ]
    ]
    },
    {
    "result": "toaster_p",
    "type": "uncraft",
    "activity_level": "LIGHT_EXERCISE",
    "time": "6 m",
    "qualities": [ { "id": "CUT", "level": 1 } ],
    "components": [
      [ [ "toaster", 1 ] ],
      [ [ "cardboard", 25 ] ],
      [ [ "bag_plastic", 1 ] ]
    ]
    },
    {
    "result": "sorost1_p",
    "type": "uncraft",
    "activity_level": "LIGHT_EXERCISE",
    "time": "6 m",
    "qualities": [ { "id": "CUT", "level": 1 } ],
    "components": [
      [ [ "sorost1", 1 ] ],
      [ [ "cardboard", 125 ] ],
      [ [ "material_styrofoam", 200 ] ]
    ]
    },
    {
    "result": "dorbyt1_p",
    "type": "uncraft",
    "activity_level": "LIGHT_EXERCISE",
    "time": "6 m",
    "qualities": [ { "id": "CUT", "level": 1 } ],
    "components": [
      [ [ "dorbyt1", 1 ] ],
      [ [ "cardboard", 125 ] ],
      [ [ "material_styrofoam", 200 ] ]
    ]
    },
    {
    "result": "soronw_p",
    "type": "uncraft",
    "activity_level": "LIGHT_EXERCISE",
    "time": "6 m",
    "qualities": [ { "id": "CUT", "level": 1 } ],
    "components": [
      [ [ "soronw", 1 ] ],
      [ [ "cardboard", 50 ] ],
      [ [ "bag_plastic", 1 ] ]
    ]
    }
]
