[
  {
    "type": "proficiency",
    "id": "prof_MTX",
    "name": { "str": "MicroTX Mastery" },
    "category": "prof_electronic",
    "description": "Working with the MicroTX system is fairly straightforward, but can be frustrating to new users.",
    "can_learn": true,
    "default_time_multiplier": 1.1,
    "default_skill_penalty": 0,
    "time_to_learn": "3 h"
  }
]