[
    {
    "type": "npc_class",
    "id": "NC_RCMP",
    "name": { "str": "RCMP Officer" },
    "job_description": "I'm a career RCMP officer.",
    "traits": [ { "group": "NPC_starting_traits" }, { "group": "Appearance_demographics" } ],
    "skills": [
      { "skill": "ALL", "level": { "sum": [ { "dice": [ 3, 2 ] }, { "constant": -3 } ] } },
      { "skill": "gun", "bonus": { "rng": [ 3, 4 ] } },
      { "skill": "pistol", "bonus": { "rng": [ 3, 4 ] } },
      { "skill": "rifle", "bonus": { "rng": [ 3, 4 ] } }
    ],
    "worn_override": "NC_RCMP_worn",
    "carry_override": "NC_CITY_COP_misc",
    "weapon_override": "NC_CITY_COP_weapons"
    },
    {
    "type": "item_group",
    "id": "NC_RCMP_worn",
    "subtype": "collection",
    "entries": [
      { "item": "mounty_vest" },
      { "item": "ballistic_vest_esapi" },
      { "item": "briefs" },
      { "item": "boots_western" },
      { "item": "duffelbag" },
      { "item": "socks" },
      { "item": "mounty_breeches" },
      { "item": "dress_shirt" },
      { "item": "mounty_hat" }
    ]
    }
]
