[
  {
    "type": "npc",
    "id": "exi_inf",
    "name_unique": "EXI1 Infiltrator",
    "gender": "female",
    "class": "NC_PSHUD",
    "attitude": 1,
    "mission": 8,
    "chat": "EXI1_INF",
    "faction": "none"
  },
  {
    "id": "EXI1_INF",
    "type": "talk_topic",
    "dynamic_line": [ { "u_male": true, "yes": "ORDERS SIR.", "no": "ORDERS MA'AM." } ],
    "responses": [
      {
        "text": "Begin first time setup.",
        "condition": { "not": { "npc_has_var": "EXI1_INF_first_time_setup", "type": "general", "context": "setup", "value": "yes" } },
        "topic": "EXI_INF_first_time_setup",
        "effect": [
          "follow",
          { "npc_add_var": "EXI_INF_first_time_setup", "type": "general", "context": "setup", "value": "yes" },
          { "npc_add_bionic": "bio_blade_PSHUD" },
          { "npc_add_bionic": "bio_armor_arms" },
          { "npc_add_bionic": "bio_armor_eyes" },
          { "npc_add_bionic": "bio_armor_head" },
          { "npc_add_bionic": "bio_armor_legs" },
          { "npc_add_bionic": "bio_armor_torso" },
          { "npc_add_bionic": "bio_carbon" },
          { "npc_add_bionic": "bio_eye_enhancer" },
          { "npc_add_bionic": "bio_face_mask" },
          { "npc_add_bionic": "bio_nanobots" },
          { "npc_add_bionic": "bio_painkiller" },
          { "set_npc_cbm_reserve_rule": "CBM_RESERVE_NONE" }
        ]
      },
      { "text": "Please follow me.", "effect": [ "follow" ], "topic": "EXI1_INF" },
      { "text": "Please stay here.", "effect": [ "stop_following" ], "topic": "EXI1_INF" },
      { "text": "Let's discus how you deal with combat...", "topic": "TALK_COMBAT_ENGAGEMENT" },
      { "text": "That will be all...", "topic": "TALK_NONE" }
    ]
  },
  {
    "id": "EXI_INF_first_time_setup",
    "type": "talk_topic",
    "dynamic_line": [
      "START - ENABLE PERSONALITY CORE... DONE. MODULATING VOICE... Done. Preparing learning algorithum... Done. Weapons Check - Anderson BioBlade... Functional. Bionic Module Check... Done. Interface success, power network set up. Identifying master... Done. Identifying Non-combatants... Done. Retreiving SITREP from EXI1 servers.......... Done. Please choose a background from the list provided - Infiltrator will customize history based on your selections."
    ],
    "responses": [
      { "text": "[No History]Be enigmatic.", "effect": { "npc_add_trait": "BGSS_No_Past_1" }, "topic": "ANDERSON_PSHUD" },
      {
        "text": "[Religious]Something religious - faith is important to you.",
        "effect": { "npc_add_trait": "BGSS_Religious_1" },
        "topic": "ANDERSON_PSHUD"
      },
      {
        "text": "[Left for Dead]You were left for dead by everyone.",
        "effect": { "npc_add_trait": "BGSS_Left_for_Dead_2" },
        "topic": "ANDERSON_PSHUD"
      },
      {
        "text": "[Prepper]You knew the end was comming.",
        "effect": { "npc_add_trait": "BGSS_Prepper_1" },
        "topic": "ANDERSON_PSHUD"
      },
      {
        "text": "[Petty Criminal]You were a petty criminal.",
        "effect": { "npc_add_trait": "BGSS_Criminal_1" },
        "topic": "ANDERSON_PSHUD"
      },
      { "text": "[Cop]You were a cop.", "effect": { "npc_add_trait": "BGSS_Cop_2" }, "topic": "ANDERSON_PSHUD" },
      { "text": "[Nerd]Nerd.", "effect": { "npc_add_trait": "BGSS_Nerd_1" }, "topic": "ANDERSON_PSHUD" },
      {
        "text": "[Professor]You are a professor of art history.",
        "effect": { "npc_add_trait": "BGSS_Professor_1" },
        "topic": "ANDERSON_PSHUD"
      }
    ]
  },
  {
    "id": "EXI_INF_first_time_setup",
    "type": "talk_topic",
    "dynamic_line": [ "Downloading memory file... Done. Final initiation complete. Partner menu enabled." ],
    "responses": [ { "text": "Thank you.", "topic": "EXI1_INF" } ]
  }
]
