[
    {
    "id": "sandwich_part",
    "type": "requirement",
    "components": [ 
        [ 
            [ "blt", 1 ], 
            [ "sandwich_cheese_grilled", 1 ], 
            [ "sandwich_deluxe", 1 ], 
            [ "sandwich_cucumber", 1 ], 
            [ "sandwich_cheese", 1 ], 
            [ "sandwich_jam", 1 ], 
            [ "sandwich_jam_butter", 1 ], 
            [ "sandwich_honey", 1], 
            [ "sandwich_sauce", 1], 
            [ "sandwich_veggy", 1], 
            [ "sandwich_t", 1], 
            [ "sandwich_pb", 1], 
            [ "sandwich_pbj", 1], 
            [ "sandwich_pbh", 1], 
            [ "sandwich_pbm", 1], 
            [ "fish_sandwich", 1], 
            [ "fish_bagel", 1],
            [ "junk_burrito", 1],
            [ "fchicken", 4],
            [ "chilidogs", 1],
            [ "hotdogs_cooked", 1],
			[ "reuben_sandwich", 1],
            [ "cheeseburger", 1],
            [ "hamburger", 1],
            [ "sloppyjoe", 1],
			[ "meatloaf_sandwich", 1],
			[ "reuben_sandwich", 1],
			[ "sandwich_salad", 1],
			[ "quesadilla_cheese", 1],
            [ "taco", 1 ]
            ] 
        ]
   },
   {
    "id": "snack_part",
    "type": "requirement",
    "components": [ 
        [ 
            [ "toastem", 1 ], 
            [ "toastem2", 1 ], 
            [ "toastem3", 1 ], 
            [ "chips", 3 ], 
            [ "chips2", 3 ], 
            [ "chips3", 3 ], 
            [ "popcorn", 4 ], 
            [ "popcorn2", 4 ], 
            [ "popcorn3", 4 ], 
            [ "pretzels", 3], 
            [ "chocpretzels", 3], 
            [ "chocolate", 3], 
            [ "marshmallow", 1], 
            [ "smores", 1], 
            [ "candy", 1], 
            [ "candy2", 1], 
            [ "candy3", 1],
            [ "licorice", 1],
            [ "maple_candy", 1],
            [ "cookies", 4],
            [ "jihelucake", 2],
            [ "cake2", 2],
            [ "cake3", 2],
            [ "mintpatties", 3],
            [ "caramel_apple", 1],
            [ "nachos", 1],
            [ "nachosc", 1],
            [ "nachosm", 1],
            [ "nachosmc", 1],
            [ "nachosv", 1],
            [ "nachosvc", 1],
            [ "nachoss", 1],
            [ "nachoscs", 1],
            [ "nachosms", 1],
            [ "nachosmcs", 1],
            [ "nachosvs", 1],
            [ "nachosvcs", 1],
            [ "porkstick", 4],
            [ "choc_pancakes", 1],
            [ "choc_waffles", 2],
            [ "apple", 2],
            [ "banana", 2],
            [ "orange", 3],
            [ "blueberries", 4],
            [ "strawberries", 4],
            [ "cranberries", 4],
            [ "raspberries", 3],
            [ "huckleberries", 4],
            [ "mulberries", 4],
            [ "rose_hips", 1],
            [ "pear", 2],
            [ "grapefruit", 2],
            [ "cherries", 2],
            [ "plums", 4],
            [ "grapes", 1],
            [ "pineapple", 2],
            [ "peach", 4],
            [ "watermelon", 5],
            [ "melon", 5],
            [ "blackberries", 3],
            [ "apricot", 1],
            [ "yoghurt", 1],
            [ "pudding", 1],
            [ "cheese", 2],
            [ "cheese_hard", 2],
            [ "cereal_fp1", 1],
            [ "cereal_fp2", 1],
            [ "cereal_fp3", 1],
            [ "cereal_fp4", 1],
            [ "cereal_fp5", 1],
            [ "cereal_fp6", 1],
            [ "cereal_fp7", 1],
            [ "cereal", 2],
            [ "cereal2", 2],
            [ "cereal3", 2],
            [ "pistachio_roasted", 1],
            [ "almond_roasted", 1],
            [ "cashews", 1],
            [ "pecan_roasted", 1],
            [ "beech_nuts", 1],
            [ "walnut_roasted", 1],
            [ "chestnut_roasted", 1],
            [ "hazelnut_roasted", 1],
            [ "hickory_nut_roasted", 1],
            [ "edamame_roasted", 1],
            [ "cracklins", 1],
            [ "human_cracklins", 1 ],
            [ "mutant_cracklins", 1 ],
            [ "mutant_human_cracklins", 1 ],
            [ "demihuman_cracklins", 1 ],
			[ "creamed_fish_crackers", 1 ],
			[ "deviled_egg", 4],
			[ "deviled_egg_sea", 4],
			[ "scotch_egg", 4],
			[ "pumpkin_muffins", 1],
			[ "creamed_fish_toast", 1 ]
            ] 
        ]
   },
    {
    "id": "drink_part",
    "type": "requirement",
    "components": [ 
        [ 
            [ "apple_cider", 1 ], 
            [ "almond_milk", 1 ], 
            [ "soy_milk", 1 ], 
            [ "bee_balm_tea", 1 ], 
            [ "choc_drink", 1], 
            [ "chicory_coffee", 1], 
            [ "colamdew", 1], 
            [ "creamsoda", 1],
            [ "cranberry_juice", 1],
            [ "crispycran", 1],
            [ "dandelion_tea", 1],
            [ "dandelionburdock_tea", 1],
            [ "eggnog", 1],
            [ "juice_pasteurized", 1],
            [ "juice", 1],
            [ "kompot", 1],
            [ "lemonade", 1],
            [ "lemonlime", 1],
            [ "milk", 1],
            [ "milk_choc", 1],
            [ "milk_reconstituted", 1],
            [ "oj", 1],
            [ "orangesoda", 1],
            [ "purple_drink", 1],
            [ "rootbeer", 1],
            [ "spezi", 1],
            [ "sports_drink", 1],
            [ "spurge_tea", 1],
            [ "rehydration_drink", 1],
            [ "sweet_water", 1],
            [ "V8", 1],
            [ "water_clean", 1],
            [ "water_mineral", 1],
            [ "tomato_juice", 1]
            ] 
        ]
   },
   {
    "id": "dessert_part",
    "type": "requirement",
    "components": [ 
        [ 
            [ "fruit_pancakes", 1 ], 
            [ "fruit_waffles", 1 ], 
            [ "pie", 1 ], 
            [ "pie_maple", 1 ], 
            [ "cloutie_dumpling", 1], 
            [ "brioche", 1], 
            [ "sponge_cake", 1], 
            [ "space_cake", 1],
            [ "brownie", 1],
            [ "milkshake", 1],
            [ "milkshake_fastfood", 1],
            [ "milkshake_choc", 1],
            [ "milkshake_deluxe", 1],
            [ "milkshake_deluxe_choc", 1],
            [ "frozen_lemonade", 1],
            [ "icecream", 1],
            [ "icecream_artificial", 1],
            [ "icecream_choc", 1],
            [ "sundae_cup", 1],
            [ "icecream_candy", 1],
            [ "icecream_fruit", 1],
            [ "icecream_custard", 1],
            [ "icecream_yogurt", 1],
            [ "icecream_sorbet", 1],
            [ "icecream_gelato", 1],
            [ "yoghurt", 1],
            [ "pudding", 1],
            [ "chocolate", 1],
            [ "marshmallow", 1],
            [ "smores", 1],
            [ "candy", 1],
            [ "candy2", 1],
            [ "candy3", 1],
			[ "cow_candy", 1],
            [ "licorice", 1],
            [ "powder_candy", 1],
            [ "maple_candy", 1],
			[ "cookies", 1],
            [ "cookies_egg", 1],
            [ "jihelucake", 1],
            [ "cake2", 1],
			[ "cake3", 1],
            [ "choco_coffee_beans", 1],
            [ "mintpatties", 1],
            [ "neccowafers", 1],
			[ "candycigarette", 1],
            [ "caramel_apple", 1],
            [ "choc_pancakes", 1],
            [ "choc_waffles", 1],
			[ "maltballs", 1],
            [ "candy_coated_peanuts", 1],
            [ "candy3gator", 1]
            ] 
        ]
   },
   {
    "id": "caffiene_part",
    "type": "requirement",
    "components": [ 
        [ 
            [ "atomic_coffee", 1 ], 
            [ "chai_tea", 2 ], 
            [ "chamomile_tea", 2], 
            [ "coffee", 2], 
            [ "coffee_substitute", 2], 
            [ "chicory_coffee", 2], 
            [ "cola", 2], 
            [ "energy_drink", 1],
            [ "energy_drink_atomic", 1],
            [ "lotus_tea", 2],
            [ "milk_coffee", 2],
            [ "milk_tea", 2],
            [ "pine_tea", 2],
            [ "tea", 2],
            [ "tea_bark", 2],
            [ "tea_green", 2],
            [ "tea_fruit", 2],
            [ "coffee_sweetened", 2],
            [ "tea_sweetened", 2],
            [ "milk_tea_sweetened", 2],
            [ "coffee_substitute_sweetened", 2],
            [ "milk_coffee_sweetened", 2]
            ] 
        ]
   },
   {
    "id": "main_part",
    "type": "requirement",
    "components": [ 
        [ 
            [ "royal_beef", 1 ], 
            [ "glazed_tenderloin", 1 ], 
            [ "sausagegravy", 1 ], 
            [ "chili", 1 ], 
            [ "can_chowder", 1], 
            [ "pie_meat", 1], 
            [ "pizza_meat", 1], 
            [ "pizza_supreme", 1], 
            [ "haggis", 1],
            [ "sushi_fishroll", 1],
            [ "sushi_meatroll", 1],
            [ "sashimi", 1],
            [ "humble_pie", 1],
            [ "lung_provence", 1],
            [ "tÖttchen", 1],
            [ "foodplace_food", 1],
            [ "pie_veggy", 1],
            [ "pizza_veggy", 1],
            [ "spaghetti_pesto", 1],
            [ "onigiri", 1],
            [ "sushi_veggyroll", 1],
			[ "tuna_melt", 1],
            [ "pizza_cheese", 1]
            ] 
        ]
   },
   {
    "id": "side_part",
    "type": "requirement",
    "components": [ 
        [ 
            [ "noodles_fast", 2 ], 
            [ "frenchtoast", 2 ], 
            [ "cooked_cattail_stalk", 2 ], 
            [ "roasted_cattail_rhizome", 2 ], 
            [ "dandelion_fried", 2 ], 
            [ "burdock_cooked", 2 ], 
            [ "burdock_fried", 2], 
            [ "dandelionburdock_fried", 2], 
            [ "veggy_cooked", 2], 
            [ "veggy_wild_cooked", 2], 
            [ "veggy_aspic", 2], 
            [ "buckwheat_cooked", 2], 
            [ "can_corn", 2], 
            [ "rice_cooked", 2], 
            [ "potato_baked", 1], 
            [ "carrot_roasted", 2],
            [ "cooked_pumpkin", 2],
            [ "veggy_pickled", 2],
            [ "veggy_salad", 1],
            [ "insta_salad", 1],
            [ "dahlia_baked", 2],
            [ "salsify_baked", 2],
            [ "sushi_rice", 2],
            [ "sauerkraut", 1 ],
            [ "fiddlehead_boiled", 2],
            [ "fiddlehead_sauteed", 2],
            [ "cooked_bell_pepper", 2],
            [ "sandwich_part", 1, "LIST"],
            [ "protein_shake_fortified", 1 ],
            [ "fried_livers", 1 ],
            [ "stewed_tripe", 1 ],
            [ "fried_tripe", 1],
            [ "fried_brain", 1],
            [ "grilled_sweetbread", 1],
            [ "lung_provence", 1],
            [ "mushroom_cooked", 2],
            [ "morel_cooked", 2],
            [ "morel_fried", 1 ],
            [ "sausage_edible_part", 1, "LIST" ],
            [ "meat_aspic", 1],
            [ "fish_pickled", 1],
            [ "crab_cakes", 1],
            [ "stuffed_clams", 1],
            [ "lutefisk", 1],
            [ "can_sardine", 1],
			[ "dressed_veggy_salad", 1],
            [ "ravioli", 2],
            [ "fried_spam", 1],
            [ "meat_pickled", 1],
            [ "boiled_egg", 2],
            [ "pickled_egg", 2],
			[ "mashed_potatoes_gravy", 2],
			[ "mashed_potatoes", 2],
			[ "welsh_rarebit", 2],
			[ "cmeatball", 6],
			[ "greek_lemon", 2],
			[ "itallian_parmesan", 2],
			[ "garlic_soup", 2],
			[ "creamed_fish_toast", 2],
			[ "creamed_fish_crackers", 2],
			[ "the_mackie", 2],
			[ "filling", 2, "LIST"]
            ] 
        ]
   },
      {
    "id": "filling",
    "type": "requirement",
    "components": [ 
        [ 
			[ "filling_classic_piroski", 1 ],
			[ "filling_potato_mushroom", 1 ],
			[ "filling_potato_cheese", 1 ],
			[ "filling_shepards_pie", 1 ],
			[ "filling_meat_spinach", 1 ],
			[ "filling_potato_meat", 1 ],
			[ "filling_meat_potato_mushroom", 1],
			[ "filling_sauerkraut_mushroom", 1],
			[ "filling_mushroom", 1 ]
		]
	]
	},
	{
	"id": "cheese_part",
	"type": "requirement",
	"components": [
	[
		[ "can_cheese", 1 ],
        [ "cheese", 1 ],
		[ "paneer", 1 ],
        [ "cheese_hard", 1 ]
	]
	]
	},
	{
	"id": "sauce_white_a",
	"type": "requirement",
	"components": [
     [
     	[ "creamed_fish", 1 ],
        [ "creamed_cabbage", 1 ],
		[ "hollandaise", 1 ],
		[ "creamed_leeks", 1 ],
		[ "creamed_mushrooms", 1 ],
		[ "creamed_potatoes", 1 ],
		[ "creamed_spinach", 1 ],
		[ "white_sauce", 1 ],
		[ "mornay_sauce", 1 ],
		[ "gravy_white", 1 ]
	]
	]
	},
	{
	"id": "sauce_red_a",
	"type": "requirement",
	"components": [
	[
        [ "mragu", 1 ],
		[ "sauce_pesto", 1 ], 
        [ "marinara_sauce", 1 ], 
		[ "sauce_red", 1 ]
	]
	]
	},
	{
	"id": "sauce_meat_a",
	"type": "requirement",
	"components": [
	[
        [ "gravy_meat", 1 ],
		[ "gravy_fsausage", 1 ],
		[ "gravy_herb", 1 ],
        [ "demi_glaze", 1 ],
        [ "pan_sauce", 1 ],
		[ "gravy_offal", 1 ]
	]
	]
	},
	{
	"id": "sauce_all_a",
	"type": "requirement",
    "components": [
	[
        [ "sauce_white_a", 1, "LIST" ],
		[ "sauce_meat_a", 1, "LIST" ],
		[ "sauce_red_a", 1, "LIST" ],
		[ "pesto", 1 ],
		[ "sdtpesto", 1 ],
        [ "brown_sauce", 1],
		[ "pistou", 1 ]
	]
	]
	},
	{
	"id": "pasta_part",
	"type": "requirement",
	"components": [
	[
        [ "ravioli_JofC", 20 ],
		[ "tortellini_JofC", 30 ],
		[ "canneloni_JofC", 4 ]
	]
	]
	},
	{
	"id": "sand_filling",
	"type": "requirement",
	"components": [
	[
		[ "filling_egg_salad", 1 ],
		[ "filling_fish_salad", 1 ],
		[ "filling_curried_meat_salad", 1 ]
	]
	]
	},
	{
	"id": "salad_dressing",
	"type": "requirement",
	"components": [
	[
		[ "vinagrette", 1 ],
		[ "B_vinagrette", 1 ],
		[ "H_vinagrette", 1 ],
		[ "P_vinagrette", 1 ],
		[ "HM_vinagrette", 1 ],
		[ "dressing_russian", 1 ],
		[ "dressing_thousand", 1 ],
		[ "dressing_ranch", 1 ],
		[ "dressing_coleslaw", 1 ]
	]
	]
	},
    {
    "id": "mustard_part",
    "type": "requirement",
    "components": [
    [
        [ "mustard", 1 ], 
        [ "drymustard", 1 ]
    ]
    ]
    },
    {
    "id": "water_part",
    "type": "requirement",
    "components":[
    [
        [ "water", 1 ], 
        [ "water_clean", 1 ]
    ]
    ]
    },
    {
    "id": "salsa_part",
    "type": "requirement",
    "components":[
    [
        [ "tomato_olive_relish", 1 ], 
        [ "tomato_chipotle_salsa", 1 ],
		[ "fruit_salsa", 1 ], 
        [ "can_generic_salsa", 1 ]
    ]
    ]
    },
    {
    "id": "bbq_part",
    "type": "requirement",
    "components":[
    [
        [ "bbsauce", 1 ], 
        [ "hp_sauce", 1 ],
		[ "chilli_sauce", 1 ], 
        [ "barbecue_sauce", 1 ], 
        [ "honey_mustard", 1 ], 
        [ "garlic_marinade", 1 ]
    ]
    ]
    },
    {
    "id": "relish_part",
    "type": "requirement",
    "components":[
    [
        [ "tomato_olive_relish", 1 ]
    ]
    ]
	},
    {
    "id": "egg_part",
    "type": "requirement",
    "components":[
    [
        [ "eggs_bird", 1, "LIST" ],
        [ "egg_reptile", 1 ]
    ]
    ]
    },
    {
    "id": "fish_part",
    "type": "requirement",
    "components":[
    [
        [ "fish", 1 ],
        [ "dry_fish", 1 ],
        [ "fish_smoked", 1 ],
        [ "fish_pickled", 1 ],
        [ "salted_fish", 1 ],
        [ "fish_canned", 1 ],
        [ "can_salmon", 1 ],
        [ "can_tuna", 1 ]
    ]
    ]
    },
    {
    "id": "fillet_part",
    "type": "requirement",
    "components":[
    [
        [ "fish", 1 ],
        [ "fish_smoked", 1 ],
        [ "rehydrated_fish", 1 ]
    ]
    ]
    },
	{
	"id": "sausage_part",
	"type": "requirement",
	"components": [ 
	[ 
		[ "sausage_cooked", 1 ], 
		[ "sausage_raw", 1 ], 
		[ "sausage", 1 ],
        [ "lifrarpylsa", 1],
        [ "casausage", 1],
        [ "casausage_cooked", 1],        
        [ "casausage_raw", 1]
	] 
	]
	},
	{
	"id": "mashed_potatoes_part",
	"type": "requirement",
	"components": [
	[
			[ "creamy_mashed_potatoes", 1],
			[ "mashed_potatoes", 1]
	]
	]
	},
	{
	"id": "onion_part",
	"type": "requirement",
	"components": [
	[
			[ "onion", 1],
			[ "leek", 1],
			[ "chives", 1],
			[ "recons", 1]
	]
	]
	},
	{
	"id": "mexican_part",
	"type": "requirement",
	"components": [
	[
			[ "tamale_pie", 1],
			[ "relish_fish", 1],
			[ "deluxe_beans", 1], 
		    [ "deluxe_veggy_beans", 1],
			[ "deluxe_rice", 1], 
            [ "deluxe_beansnrice", 1], 
			[ "beansnrice", 1],
            [ "deluxe_veggy_rice", 1],
			[ "deluxe_veggy_beansnrice", 1],
			[ "homemade_burrito", 1 ],
			[ "seviche", 1],
			[ "taco", 2],
			[ "huevos_ranceros", 1]
	]
	]
	},
	{
	"id": "indian_part",
	"type": "requirement",
	"components": [
	[
			[ "dal", 1],
			[ "saag_paneer", 1],
			[ "curry_veggy", 1],
            [ "curry_meat", 1]
	]
	]
	},
	{
	"id": "chineese_part",
	"type": "requirement",
	"components": [
	[
			[ "SASpork", 1],
			[ "soy_fish", 1],
			[ "tofu_rice", 1],
			[ "tofu_stirfry", 1],			
			[ "fishballs", 1]
	]
	]
	},
	{
	"id": "soup_part",
	"type": "requirement",
	"components": [
	[
			[ "greek_lemon", 1],
			[ "itallian_parmesan", 1],
			[ "soup_woods", 1],
            [ "soup_mushroom", 1],
            [ "soup_tomato", 1],
			[ "soup_veggy", 1],
			[ "garlic_soup", 1],
			[ "african_peanut_stew", 1],
            [ "soup_chicken", 1],
            [ "soup_dumplings", 1],
            [ "soup_cullenskink", 1],
            [ "soup_meat", 1],
            [ "soup_fish", 1],
			[ "meat_stew_wine", 1]
	]
	]
	},
	{
	"id": "pastam_part",
	"type": "requirement",
	"components": [
	[
			[ "stuffed_pasta_sauce", 1],
			[ "stuffed_fpasta_sauce", 1],
			[ "macaroni_helper", 1 ], 
			[ "spaghetti_bolognese", 1],
			[ "spaghetti_cooked", 1],
			[ "macaroni_cooked", 1],
			[ "lasagne", 1],
			[ "pelmeni", 1],
			[ "spaghetti_ragu", 1],
			[ "spaghetti_ragu_ball", 1]
	]
	]
	},
	{
	"id": "english_part",
	"type": "requirement",
	"components": [
	[
			[ "bubble_and_squeak", 1],
			[ "welsh_rarebit", 1],
			[ "quiche_loraine", 1],
			[ "quiche_leek", 1],
			[ "quiche_cheese", 1],
			[ "tuscan_baked_beans", 1],
			[ "chipped_meat_and_gravy", 1],
			[ "meat_divan", 1],
			[ "pork_beans", 1],
			[ "meat_hash", 1],
			[ "steak_kidney_pie", 1],
			[ "diane_meat", 1]
	]
	]
	},
	{
	"id": "casserole_part",
	"type": "requirement",
	"components": [
	[
			[ "rcasserole", 1],
			[ "mustard_meatloaf", 1],
			[ "meat_divan", 1],
			[ "sauced_meatloaf", 1],
			[ "hamburg_pie", 1],
			[ "fish_loaf", 1],
			[ "lentils_sausage", 1],
			[ "mashed_potatoes_gravy", 1]
	]
	]
	},
	{
	"id": "ukraine_part",
	"type": "requirement",
	"components": [
	[
			[ "cab_npb", 1],
			[ "cab_npm", 1],
			[ "cab_np", 1],
			[ "borscht", 1],
			[ "meat_borscht", 1],
			[ "fcabbage_roll_JofC", 1],
			[ "cabbage_roll_JofC", 1]
	]
	]
	},
	{
	"id": "breakfast_part",
	"type": "requirement",
	"components": [
	[
			[ "scrambled_eggs", 1],
			[ "fried_eggs", 1],
			[ "scrambledeggsandbrain", 1],
			[ "oatmeal_cooked", 1],
			[ "oatmeal_deluxe", 1],
			[ "eggs_in_a_basket", 2],
			[ "creamed_fish_crackers", 1],
			[ "the_mackie", 1],
			[ "creamed_fish_toast", 1],
			[ "apples_sausage", 1],
			[ "apples_filling", 1],
			[ "deviled_egg", 4],
			[ "poached_egg_toast", 2],
			[ "poached_egg_benedict", 2],
			[ "poached_egg_blackstone", 2],
			[ "poached_egg_smoked", 2],
			[ "deluxe_eggs", 1], 
			[ "deviled_egg_sea", 4]
	]
	]
	},
	{
	"id": "breaded_part",
	"type": "requirement",
	"components": [
	[
			[ "fish_fried", 1],
			[ "fchicken", 1],
			[ "thyme_fillets", 1],
			[ "chicken_fried_meat", 1],
			[ "meat_cutlet", 1],
			[ "meat_cutlet_paprika", 1],
			[ "meat_cutlet_holstien", 1],
			[ "scotch_egg", 4]
	]
	]
	},
	{
	"id": "german_part",
	"type": "requirement",
	"components": [
	[
			[ "sauerkraut_onions", 1],
			[ "liver_onion", 1],
			[ "currywurst", 1],
			[ "sauerbraten", 1],
			[ "meat_stew_sauerkraut", 1]
	]
	]
	},
	{
	"id": "scandinavian_part",
	"type": "requirement",
	"components": [
		[
			[ "gravlax", 1],
			[ "smalahove", 2],
			[ "potato_cakes", 1]
		]
	]
	},
	{
	"id": "middleeast_part",
	"type": "requirement",
	"components": [
		[
			[ "mousaka", 1]
		]
	]
	},
	{
	"id": "all_meals_part",
	"type": "requirement",
	"components": [
		[
			[ "tupperware_sandwich", 1],
			[ "tupperware_main", 1],
			[ "tupperware_mexican", 1],
			[ "tupperware_indian", 1],
			[ "tupperware_veggie", 1],
			[ "tupperware_soup", 1],
			[ "tupperware_english", 1],
			[ "tupperware_middleeast", 1],
			[ "tupperware_chineese", 1],
			[ "tupperware_pasta", 1],
			[ "tupperware_casserole", 1],
			[ "tupperware_ukraine", 1],
			[ "tupperware_breaded", 1],
			[ "tupperware_scandinavian", 1],
			[ "tupperware_german", 1],
			[ "tupperware_breakfast", 1]
		]
	]
	},
    {
        "id": "pate_part",
        "type": "requirement",
        "components": [
            [
               [ "lifrarpylsa", 1],
               [ "foie_gras", 1],
               [ "leverpostej", 1],
               [ "lung_provence", 1],
               [ "fried_brain", 1]
            ]
        ]
    },
    {
        "id": "sausage_edible_part",
        "type": "requirement",
        "components": [
            [
               [ "lifrarpylsa", 1],
               [ "casausage", 1],
               [ "casausage_cooked", 1],
               [ "sausage", 1],
               [ "sausage_cooked", 1]
            ]
        ]
    },
    {
        "id": "oil_part_veg",
        "type": "requirement",
        "components": [
            [
               [ "oil_olive", 1],
               [ "oil_evoo", 1],
               [ "oil_palm", 1],
               [ "oil_peanut", 1],
               [ "oil_sesame", 1],
               [ "oil_canola", 1]
            ]
        ]
    },
    {
        "id": "oil_part_all",
        "type": "requirement",
        "components": [
            [
               [ "oil_part_veg", 1, "LIST"],
               [ "any_butter_or_oil", 1, "LIST"]
            ]
        ]
    },
    {
        "id": "veggy_part",
        "type": "requirement",
        "components": [
            [
               [ "potato_cakes", 1],
			[ "apples_filling", 1],
			[ "borscht", 1], 
			[ "spaghetti_bolognese", 1],
			[ "spaghetti_cooked", 1],
			[ "macaroni_cooked", 1],
			[ "soup_woods", 1],
            [ "soup_mushroom", 1],
            [ "soup_tomato", 1],
			[ "soup_veggy", 1],
			[ "garlic_soup", 1],
			[ "african_peanut_stew", 1],
               [ "sauerkraut_onions", 1]
            ]
        ]
    }
]
