[
  {
    "om_terrain": [ 
            [ "castle-0-0-2", "castle-1-0-2", "castle-2-0-2", "castle-3-0-2", "castle-4-0-2" ],
            [ "castle-0-1-2", "castle-1-1-2", "castle-2-1-2", "castle-3-1-2", "castle-4-1-2" ],
            [ "castle-0-2-2", "castle-1-2-2", "castle-2-2-2", "castle-3-2-2", "castle-4-2-2" ],
            [ "castle-0-3-2", "castle-1-3-2", "castle-2-3-2", "castle-3-3-2", "castle-4-3-2" ],
            [ "castle-0-4-2", "castle-1-4-2", "castle-2-4-2", "castle-3-4-2", "castle-4-4-2" ]        
        ],
    "type": "mapgen",
    "weight": 100,
    "method": "json",
    "object": {
      "fill_ter": "t_open_air",
      "rows": [
        "                                                                                                                        ", 
        "                                                                                                                        ", 
        "                                                                                                                        ",
        "                                                                                                                        ", 
        "                                                                                                                        ", 
        "                                                                                                                        ", 
        "                                                                                                                        ", 
        "                                                                                                                        ", 
        "                                                                                                                        ", 
        "                                                                                                                        ", 
        "                                                                                                                        ", 
        "                                                                                                                        ", 
        "                                                                                                                        ", 
        "                                                                                                                        ", 
        "                                                                                                                        ", 
        "                                                                                                                        ", 
        "                                                                                                                        ", 
        "                                                                                                                        ", 
        "                                                                                                                        ", 
        "                                                                                                                        ", 
        "                                                                                                                        ", 
        "                                                                                                                        ", 
        "                                                                                                                        ", 
        "                                                                                                                        ", 
        "                                                                                                                        ", 
        "                                                                                                                        ", 
        "                                                                                                  !!!!!!!!!!!!!!!       ", 
        "                      !!!!!!!!!!!!!!!!                                                         !!!$$$$$$$$$$$$$$ii!     ", 
        "            !!!!!!!!!!$$$$$$$$$$$$$$$$!!!!!!!                                              !!!!$$$;;;;;;;;;;;;;$i!      ", 
        "          !!$$$$$$$$$$;;;;;;;;;;;;;;;;$$$$$$$!!!                                        !!!$$$$;;;;;;;;;;;;;;;$!!       ", 
        "         !$$;;;;;;;;;;;;;;;;;;;;;;;;;;;;;;;;;$$$!!!                             !!!!!!!!$$$;;;;;;;;;;;;;;;;;;;$!        ", 
        "        !$;;;;;;;;;;;;;;;;;;;;;;;;;;;;;;;;;;;;;;$$$!!!!!!!!!!!!!!!!!!!!!!!!!!!!!$$$$$$$$;;;;;;;;;;;;;;;;;;;;;;$!        ", 
        "       !$;;;;;;;;;;;;;;;;;;;;;;;;;;;;;;;;;;;;;;;;;;$$$$$$$$$$$$$$$$$$$$$$$$$$$$$;;;;;;;;;;;;;;;;;;;;;;;;;;;;;;;$!       ",
        "      !$;;;;;;;;;;;;;;;;;;;;;;;;;;;;;;;;;;;;;;;;;;;;;;;;;;;;;;;;;;;;;;;;;;;;;;;;;;;;;;;;;;;;;;;;;;;;;;;;;;;;;;;;$!      ", 
        "     !$;;;;;;;;;;;;;;;;;;;;;;;;;;;;;;;;;;$$$$$$$$$$$$$$$$$;;;;;;;;;;;;;;;;;;;;;;;;;;;;;;;;;;;;;;;;;;;;;;;;;;;;;;;$!     ", 
        "   !!$;;;;;;;;;;;;;;;;;;;;;;;;;;;;;;;$$$$!!!!!!!!!!!!!!!!!$$$$$;;;;;;;;;;;;;;;;;;;;;;;;;;;;;;;;;;;;;;;;;;;;;;;;;;;$!    ", 
        "   !$;;;;;;;;;;;;;;;;;;;;;;;;;;;;;$$$!!!!                 !!!!!$$;;;;;;;;;;;;;;;;;;;;;;;;;;;;;;;;;;;;;;;;;;;;;;;;;;$!   ", 
        "   !$;;;;;;;;;;;;;;;;;;;;;;;;;;;$$!!!                          !!$$$$$$$$$$;;;;;;;;;;;;;;;;;;;;;;;;;;;;;;;;;;;;;;;$!!   ", 
        "   !$;;;;;;;;;;;;;;;;;;;;;;;;;$$!!                               !!!!!!!!!!$$;;;;;;;;;;;;;;;;;;;;;;;;;;;;;;;;;;;$$!     ", 
        "  !$;;;;;;;;;;;;;;;;;;;;;;;;$$!!                                           !!$$$$$$;;;;;;;;;;;;;;;;;;;;;;;;;;;$$!!      ", 
        "  !$;;;;;;;;;;;;;;;;;;;;;;;$!!                                               !!!!!!$$;;;;;;;;;;;;;;;;;;;;;;;;$!!        ", 
        "  !$;;;;;;;;;;;;;;;;;;;;;;$!                                                       !!$;;;;;;;;;;;;;;;;;;;;;;$!          ", 
        "  !$;;;;;;;;;;;;;;;;;;;;;;;$!                                                        !$;;;;;;;;;;;;;;;;;;;;$!           ", 
        "   !$;;;;;;;;;;;;;;;;;;;;;$!                         zzzzzzzzzz                       !$;;;;;;;;;;;;;;;;;;;$!           ", 
        "    !$;;;;;;;;;;;;;;;;;;;$!                          zzzzzzzzzz                       !$;;;;;;;;;;;;;;;;;;;$!           ", 
        "     !$;;;;;;;;;;;;;;;;;$!                           zzzzzzzzzzzzzz                    !$;;;;;;;;;;;;;;;;;;;$!          ", 
        "      !$;;;;;;;;;;;;;$$$!                            zzzzzzzzzzzzzz                    !$;;;;;;;;;;;;;;;;;;;;$!         ", 
        "       !$;;;;;;;;;;;;$                               zzzzzzzzzzzzzz                    !$;;;;;;;;;;;;;;;;;;;;$!         ", 
        "       !$;;;;;;;;;;;;$                               zzzzzzzzzzzzzz                     !$;;;;;;;;;;;;;;;;;;;$!         ", 
        "       !$;;;;;;;;;;;;$                               zzzzzzzzzzzzzz                     !$;;;;;;;;;;;;;;;;;;;;$!        ", 
        "       !$;;;;;;;;;;;;$!                              zzzzzzzzzz                          !$;;;;;;;;;;;;;;;;;;;;$!       ", 
        "        !$;;;;;;;;;;$!                               zzzzzzzzzz                           !$;;;;;;;;;;;;;;;;;;;;$!      ", 
        "       !$;;;;;;;;;;$!                                zzzzzzzzzz                           !$;;;;;;;;;;;;;;;;;;;;;$!     ", 
        "      !$;;;;;;;;;;$!                                                                       !$;;;;;;;;;;;;;;;;;;;;;$!    ", 
        "    !!$;;;;;;;;;;$!                                                                       !$;;;;;;;;;;;;;;;;;;;;;$!!    ", 
        "    !$;;;;;;;;;;;;$!                                                                     !$;;;;;;;;;;;;;;;;;;;;;$!      ", 
        "    !$;;;;;;;;;;;$!                                                                       !$;;;;;;;;;;;;;;;;;;;;;$!     ",
        "    !$;;;;;;;;;;;;$!                                                                      !$;;;;;;;;;;;;;;;;;;;;;;$!    ", 
        "    !$;;;;;;;;;;;;;$!!!!                                                                  !$;;;;;;;;;;;;;;;;;;;;;;;$!   ", 
        "     !$;;;;;;;;;;;;;$$$$!                                                                  !$;;;;;;;;;;;;;;;;;;;;;$!    ", 
        "     !$;;;;;;;;;;;;;;;;$!                                                                  !$;;;;;;;;;;;;;;;;;;;;;$!    ", 
        "      !$;;;;;;;;;;;;;;;$!                                                                   !$;;;;;;;;;;;;;;;;;;;;;$!   ", 
        "       !$;;;;;;;;;;;;;$!                                                                    !$;;;;;;;;;;;;;;;;;;;;;;$!  ", 
        "        !$;;;;;;;;;;;$!                                                                     !$;;;;;;;;;;;;;;;;;;;;;$!   ", 
        "         !$;;;;;;;;;$!                                                                       !$;;;;;;;;;;;;;;;;;;;$!    ", 
        "          !$;;;;;;;$!                                                                        !$;;;;;;;;;;;;;;;;;;;$!    ", 
        "           !$$$;;$$!                                                                          !$;;;;;;;;;;;;;;;;;;$!    ", 
        "            !!!$$!!                                                                           !$;;;;;;;;;;;;;;;;;$!     ", 
        "               !!                                                                            !$;;;;;;;;;;;;;;;;;;$!     ", 
        "                                                                                            !$;;;;;;;;;;;;;;;;;;;$!     ", 
        "                                                                                            !$;;;;;;;;;;;;;;;;;;;;$!    ", 
        "                                                                                            !$;;;;;;;;;;;;;;;;;;;;$!    ", 
        "                                                                                           !$;;;;;;;;;;;;;;;;;;;;;$!    ", 
        "                                                                                           !$;;;;;;;;;;;;;;;;;;;;;$!    ", 
        "                                                                                           !$;;;;;;;;;;;;;;;;;;;;;$!    ", 
        "                                                                                           !$;;;;;;;;;;;;;;;;;;;;;;$!   ", 
        "                                                                                           !$;;;;;;;;;;;;;;;;;;;;;;$!   ", 
        "                                                                                            !$;;;;;;;;;;;;;;;;;;;;$!    ", 
        "                                                                                            !$;;;;;;;;;;;;;;;;;;;$!     ", 
        "                                                                                             !$;;;;;;;;;;;;;;;;;;$!     ", 
        "                                                                                             !$;;;;;;;;;;;;;;;;;$$!     ", 
        "                                                                                             !$;;;;;;;;;;;;;;;$$!!      ", 
        "                                                                                              !$;;;;;;;;;;;;$$!!        ", 
        "                                                                                               !$;;;;;;;;;;$!!          ", 
        "                                                                                               !$;;;;;;;;;$!            ", 
        "                                                                                             !!$;;;;;;;;;$!             ", 
        "                                                                                            !$$;;;;;;;;;$$!             ",
        "                                                                                          !!$;;;;;;;;;;$!!              ", 
        "                                                                                         !$$;;;;;;;;$$$!                ", 
        "                                                                                         !$;;;;;;;$$!!!                 ", 
        "                                                                                         !!$$$$$$$!!                    ", 
        "                                                                                           !!!!!!!                      ", 
        "                                                                                                                        ", 
        "                                                                                                                        ", 
        "                                                                                                                        ", 
        "                                                                                                                        ", 
        "                                                                                                                        ", 
        "                                                                                                                        ", 
        "                                                                                                                        ", 
        "                                                                                                                        ", 
        "                                                                                                                        ", 
        "                                                                                                                        ", 
        "                                                                                                                        ", 
        "                                                                                                                        ", 
        "                                                                                                                        ", 
        "                                                                                                                        ", 
        "                                                                                                                        ", 
        "                                                                                                                        ", 
        "                                                                                                                        ", 
        "                                                                                                                        ", 
        "                                                                                                                        ", 
        "                                                                                                                        ", 
        "                                                                                                                        ", 
        "                                                                                                                        ", 
        "                                                                                                                        ", 
        "                                                                                                                        ", 
        "                                                                                                                        ", 
        "                                                                                                                        ", 
        "                                                                                                                        ", 
        "                                                                                                                        "
      ],
      "terrain": {
        "i": [ [ "t_region_groundcover", 40 ], [ "t_region_shrub", 2 ], [ "t_region_tree", 1 ] ],
        "#": "t_wall_wood",
        "/": "t_screened_porch_wall",
        "w": "t_window",
        "D": "t_door_c",
        ".": "t_floor",
        "t": "t_floor",
        "c": "t_floor",
        "H": "t_floor",
        "a": "t_floor",
        "R": "t_floor",
        "z": "t_flat_roof",
        "J": "t_floor",
        "=": "t_screen_door_c",
        "_": "t_pavement",
        ";": "t_rock",
        "!": "t_slope_down",
        "$": "t_slope_up",
        "<": "t_wood_stairs_up",
        ">": "t_wood_stairs_down"
      },
      "furniture": {
        "t": "f_table",
        "c": "f_chair",
        "J": "f_counter",
        "a": "f_fireplace",
        "R": "f_bookcase",
        "H": "f_sofa"
      }
    }
  }
]