[
  {
    "type": "recipe",
    "activity_level": "LIGHT_EXERCISE",
    "result": "deviled_egg",
    "category": "CC_FOOD",
    "subcategory": "CSC_FOOD_SNACK",
    "time": "30 m",
    "book_learn": [ [ "JofC", 4 ] ],
    "tools": [ [ [ "surface_heat", 25, "LIST" ] ] ],
    "components": [
      [ [ "boiled_egg", 12 ], [ "eggs_bird", 12, "LIST" ], [ "egg_reptile", 12 ] ],
      [ [ "mayonnaise", 1 ] ],
      [ [ "paprika", 1 ] ],
      [ [ "salt", 1 ], [ "seasoning_salt", 1 ] ],
      [ [ "mustard_part", 1, "LIST" ] ],
      [ [ "pepper", 1 ] ],
      [ [ "wosauce", 1 ] ],
      [ [ "water_part", 1, "LIST" ] ]
    ]
  },
  {
    "type": "recipe",
    "activity_level": "LIGHT_EXERCISE",
    "result": "s_deviled_egg",
    "category": "CC_FOOD",
    "subcategory": "CSC_FOOD_SNACK",
    "time": "30 m",
    "book_learn": [ [ "JofC", 3 ] ],
    "tools": [ [ [ "surface_heat", 25, "LIST" ] ] ],
    "components": [
      [ [ "boiled_egg", 12 ], [ "eggs_bird", 12, "LIST" ], [ "egg_reptile", 12 ] ],
      [ [ "mayonnaise", 1 ] ],
      [ [ "salt", 1 ], [ "seasoning_salt", 1 ] ],
      [ [ "mustard_part", 1, "LIST" ] ],
      [ [ "water_part", 1, "LIST" ] ]
    ]
  },
  {
    "type": "recipe",
    "activity_level": "LIGHT_EXERCISE",
    "result": "poached_egg",
    "category": "CC_FOOD",
    "subcategory": "CSC_FOOD_SNACK",
    "time": "30 m",
    "book_learn": [ [ "JofC", 4 ] ],
    "tools": [ [ [ "surface_heat", 25, "LIST" ] ] ],
    "components": [
      [ [ "eggs_bird", 4, "LIST" ], [ "egg_reptile", 4 ] ],
      [ [ "vinegar", 1 ] ],
      [ [ "salt", 1 ], [ "seasoning_salt", 1 ] ],
      [ [ "water_part", 1, "LIST" ] ]
    ]
  },
  {
    "type": "recipe",
    "activity_level": "LIGHT_EXERCISE",
    "result": "c_poached_egg",
    "category": "CC_FOOD",
    "subcategory": "CSC_FOOD_SNACK",
    "time": "30 m",
    "book_learn": [ [ "JofC", 4 ] ],
    "tools": [ [ [ "surface_heat", 25, "LIST" ] ] ],
    "components": [
      [ [ "eggs_bird", 4, "LIST" ], [ "egg_reptile", 4 ] ],
      [ [ "vinegar", 1 ] ],
      [ [ "paprika", 1 ] ],
      [ [ "pepper", 1 ] ],
      [ [ "salt", 1 ], [ "seasoning_salt", 1 ] ],
      [ [ "water_part", 1, "LIST" ] ]
    ]
  },
  {
    "type": "recipe",
    "activity_level": "LIGHT_EXERCISE",
    "result": "s_poached_egg_toast",
    "category": "CC_FOOD",
    "subcategory": "CSC_FOOD_SNACK",
    "time": "30 m",
    "book_learn": [ [ "JofC", 4 ] ],
    "tools": [ [ [ "surface_heat", 25, "LIST" ] ] ],
    "components": [ [ [ "poached_egg", 4 ] ], [ [ "bread_sandwich", 4, "LIST" ] ] ]
  },
  {
    "type": "recipe",
    "activity_level": "LIGHT_EXERCISE",
    "result": "poached_egg_toast",
    "category": "CC_FOOD",
    "subcategory": "CSC_FOOD_SNACK",
    "time": "30 m",
    "book_learn": [ [ "JofC", 4 ] ],
    "tools": [ [ [ "surface_heat", 25, "LIST" ] ] ],
    "components": [ [ [ "poached_egg", 4 ] ], [ [ "bread_sandwich", 4, "LIST" ] ], [ [ "sauce_white_a", 1, "LIST" ] ] ]
  },
  {
    "type": "recipe",
    "activity_level": "LIGHT_EXERCISE",
    "result": "c_poached_egg_toast",
    "category": "CC_FOOD",
    "subcategory": "CSC_FOOD_SNACK",
    "time": "30 m",
    "book_learn": [ [ "JofC", 4 ] ],
    "tools": [ [ [ "surface_heat", 25, "LIST" ] ] ],
    "components": [
      [ [ "poached_egg", 4 ] ],
      [ [ "bread_sandwich", 4, "LIST" ] ],
      [ [ "paprika", 1 ] ],
      [ [ "sauce_white_a", 1, "LIST" ] ]
    ]
  },
  {
    "type": "recipe",
    "activity_level": "LIGHT_EXERCISE",
    "result": "s_poached_egg_benedict",
    "category": "CC_FOOD",
    "subcategory": "CSC_FOOD_SNACK",
    "time": "30 m",
    "book_learn": [ [ "JofC", 4 ] ],
    "tools": [ [ [ "surface_heat", 25, "LIST" ] ] ],
    "components": [
      [ [ "poached_egg", 4 ] ],
      [ [ "dry_meat", 1 ], [ "rehydrated_meat", 1 ] ],
      [ [ "bread_sandwich", 4, "LIST" ] ],
      [ [ "sauce_white_a", 1, "LIST" ] ]
    ]
  },
  {
    "type": "recipe",
    "activity_level": "LIGHT_EXERCISE",
    "result": "c_poached_egg_benedict",
    "category": "CC_FOOD",
    "subcategory": "CSC_FOOD_SNACK",
    "time": "30 m",
    "book_learn": [ [ "JofC", 4 ] ],
    "tools": [ [ [ "surface_heat", 25, "LIST" ] ] ],
    "components": [
      [ [ "poached_egg", 4 ] ],
      [ [ "meat_cooked", 1, "LIST" ], [ "meat_red_raw", 1, "LIST" ] ],
      [ [ "bread_sandwich", 4, "LIST" ] ],
      [ [ "paprika", 1 ] ],
      [ [ "pepper", 1 ] ],
      [ [ "sauce_white_a", 1, "LIST" ] ]
    ]
  },
  {
    "type": "recipe",
    "activity_level": "LIGHT_EXERCISE",
    "result": "poached_egg_benedict",
    "category": "CC_FOOD",
    "subcategory": "CSC_FOOD_SNACK",
    "time": "30 m",
    "book_learn": [ [ "JofC", 4 ] ],
    "tools": [ [ [ "surface_heat", 25, "LIST" ] ] ],
    "components": [
      [ [ "poached_egg", 4 ] ],
      [ [ "meat_cooked", 1, "LIST" ], [ "meat_red_raw", 1, "LIST" ] ],
      [ [ "bread_sandwich", 4, "LIST" ] ],
      [ [ "sauce_white_a", 1, "LIST" ] ]
    ]
  },
  {
    "type": "recipe",
    "activity_level": "LIGHT_EXERCISE",
    "result": "poached_egg_toast",
    "category": "CC_FOOD",
    "subcategory": "CSC_FOOD_SNACK",
    "time": "30 m",
    "id_suffix": "c",
    "book_learn": [ [ "JofC", 4 ] ],
    "tools": [ [ [ "surface_heat", 25, "LIST" ] ] ],
    "components": [
      [ [ "eggs_bird", 4, "LIST" ], [ "egg_reptile", 4 ] ],
      [ [ "vinegar", 1 ] ],
      [ [ "salt", 1 ], [ "seasoning_salt", 1 ] ],
      [ [ "water_part", 1, "LIST" ] ],
      [ [ "bread_sandwich", 4, "LIST" ] ],
      [ [ "sauce_white_a", 1, "LIST" ] ]
    ]
  },
  {
    "type": "recipe",
    "activity_level": "LIGHT_EXERCISE",
    "result": "poached_egg_benedict",
    "category": "CC_FOOD",
    "subcategory": "CSC_FOOD_SNACK",
    "time": "30 m",
    "id_suffix": "d",
    "book_learn": [ [ "JofC", 4 ] ],
    "tools": [ [ [ "surface_heat", 25, "LIST" ] ] ],
    "components": [
      [ [ "eggs_bird", 4, "LIST" ], [ "egg_reptile", 4 ] ],
      [ [ "vinegar", 1 ] ],
      [ [ "salt", 1 ], [ "seasoning_salt", 1 ] ],
      [ [ "water_part", 1, "LIST" ] ],
      [ [ "meat_cooked", 1, "LIST" ], [ "meat_red_raw", 1, "LIST" ] ],
      [ [ "bread_sandwich", 4, "LIST" ] ],
      [ [ "sauce_white_a", 1, "LIST" ] ]
    ]
  },
  {
    "type": "recipe",
    "activity_level": "LIGHT_EXERCISE",
    "result": "s_poached_egg_blackstone",
    "category": "CC_FOOD",
    "subcategory": "CSC_FOOD_SNACK",
    "time": "30 m",
    "book_learn": [ [ "JofC", 4 ] ],
    "tools": [ [ [ "surface_heat", 25, "LIST" ] ] ],
    "components": [
      [ [ "eggs_bird", 4, "LIST" ], [ "egg_reptile", 4 ], [ "poached_egg", 4 ] ],
      [ [ "vinegar", 1 ] ],
      [ [ "flour", 1 ], [ "asst_insects_flour", 1 ] ],
      [ [ "salt", 1 ], [ "seasoning_salt", 1 ] ],
      [ [ "water_part", 1, "LIST" ] ],
      [ [ "ketchup", 1 ] ],
      [ [ "bread_sandwich", 4, "LIST" ] ],
      [ [ "sauce_white_a", 1, "LIST" ] ]
    ]
  },
  {
    "type": "recipe",
    "activity_level": "LIGHT_EXERCISE",
    "result": "poached_egg_blackstone",
    "category": "CC_FOOD",
    "subcategory": "CSC_FOOD_SNACK",
    "time": "30 m",
    "book_learn": [ [ "JofC", 4 ] ],
    "tools": [ [ [ "surface_heat", 25, "LIST" ] ] ],
    "components": [
      [ [ "eggs_bird", 4, "LIST" ], [ "egg_reptile", 4 ], [ "poached_egg", 4 ] ],
      [ [ "vinegar", 1 ] ],
      [ [ "flour", 1 ], [ "asst_insects_flour", 1 ] ],
      [ [ "salt", 1 ], [ "seasoning_salt", 1 ] ],
      [ [ "water_part", 1, "LIST" ] ],
      [ [ "tomato", 1 ], [ "irradiated_tomato", 1 ] ],
      [ [ "bread_sandwich", 4, "LIST" ] ],
      [ [ "sauce_white_a", 1, "LIST" ] ]
    ]
  },
  {
    "type": "recipe",
    "activity_level": "LIGHT_EXERCISE",
    "result": "c_poached_egg_blackstone",
    "category": "CC_FOOD",
    "subcategory": "CSC_FOOD_SNACK",
    "time": "30 m",
    "book_learn": [ [ "JofC", 4 ] ],
    "tools": [ [ [ "surface_heat", 25, "LIST" ] ] ],
    "components": [
      [ [ "eggs_bird", 4, "LIST" ], [ "egg_reptile", 4 ], [ "poached_egg", 4 ] ],
      [ [ "vinegar", 1 ] ],
      [ [ "flour", 1 ], [ "asst_insects_flour", 1 ] ],
      [ [ "paprika", 1 ] ],
      [ [ "pepper", 1 ] ],
      [ [ "salt", 1 ], [ "seasoning_salt", 1 ] ],
      [ [ "water_part", 1, "LIST" ] ],
      [ [ "tomato", 1 ], [ "irradiated_tomato", 1 ] ],
      [ [ "bread_sandwich", 4, "LIST" ] ],
      [ [ "sauce_white_a", 1, "LIST" ] ]
    ]
  },
  {
    "type": "recipe",
    "activity_level": "LIGHT_EXERCISE",
    "result": "poached_egg_smoked",
    "category": "CC_FOOD",
    "subcategory": "CSC_FOOD_SNACK",
    "time": "30 m",
    "book_learn": [ [ "JofC", 4 ] ],
    "tools": [ [ [ "surface_heat", 25, "LIST" ] ] ],
    "components": [
      [ [ "eggs_bird", 4, "LIST" ], [ "egg_reptile", 4 ] ],
      [ [ "vinegar", 1 ] ],
      [ [ "dill", 1 ] ],
      [ [ "salt", 1 ], [ "seasoning_salt", 1 ] ],
      [ [ "water_part", 1, "LIST" ] ],
      [ [ "fish_smoked", 1 ] ],
      [ [ "bread_sandwich", 4, "LIST" ] ],
      [ [ "sauce_white_a", 1, "LIST" ] ]
    ]
  },
  {
    "type": "recipe",
    "activity_level": "LIGHT_EXERCISE",
    "result": "poached_egg_smoked",
    "category": "CC_FOOD",
    "subcategory": "CSC_FOOD_SNACK",
    "id_suffix": "f",
    "time": "30 m",
    "book_learn": [ [ "JofC", 4 ] ],
    "tools": [ [ [ "surface_heat", 25, "LIST" ] ] ],
    "components": [
      [ [ "poached_egg", 4 ] ],
      [ [ "dill", 1 ] ],
      [ [ "salt", 1 ], [ "seasoning_salt", 1 ] ],
      [ [ "water_part", 1, "LIST" ] ],
      [ [ "fish_smoked", 1 ] ],
      [ [ "bread_sandwich", 4, "LIST" ] ],
      [ [ "sauce_white_a", 1, "LIST" ] ]
    ]
  },
  {
    "type": "recipe",
    "activity_level": "LIGHT_EXERCISE",
    "result": "deviled_egg_sea",
    "category": "CC_FOOD",
    "subcategory": "CSC_FOOD_SNACK",
    "time": "30 m",
    "book_learn": [ [ "JofC", 4 ] ],
    "tools": [ [ [ "surface_heat", 25, "LIST" ] ] ],
    "components": [
      [ [ "powder_eggs", 12 ], [ "boiled_egg", 12 ], [ "eggs_bird", 12, "LIST" ], [ "egg_reptile", 12 ] ],
      [ [ "mayonnaise", 1 ] ],
      [ [ "paprika", 1 ] ],
      [ [ "salt", 1 ], [ "seasoning_salt", 1 ] ],
      [ [ "mustard_part", 1, "LIST" ] ],
      [ [ "pepper", 1 ] ],
      [ [ "wosauce", 1 ] ],
      [ [ "water_part", 1, "LIST" ] ],
      [ [ "fish_smoked", 1 ] ]
    ]
  },
  {
    "type": "recipe",
    "activity_level": "LIGHT_EXERCISE",
    "result": "scotch_egg",
    "category": "CC_FOOD",
    "subcategory": "CSC_FOOD_SNACK",
    "time": "30 m",
    "book_learn": [ [ "JofC", 4 ] ],
    "tools": [ [ [ "surface_heat", 25, "LIST" ] ] ],
    "components": [
      [ [ "powder_eggs", 12 ], [ "boiled_egg", 12 ], [ "eggs_bird", 12, "LIST" ], [ "egg_reptile", 12 ] ],
      [ [ "batter", 2, "LIST" ] ],
      [ [ "meat_red_raw", 2, "LIST" ] ],
      [ [ "flour", 2 ], [ "asst_insects_flour", 1 ] ],
      [ [ "fry_oil", 1, "LIST" ] ]
    ]
  },
  {
    "type": "recipe",
    "activity_level": "LIGHT_EXERCISE",
    "result": "eggs_in_a_basket",
    "category": "CC_FOOD",
    "subcategory": "CSC_FOOD_SNACK",
    "time": "30 m",
    "book_learn": [ [ "JofC", 1 ] ],
    "tools": [ [ [ "surface_heat", 25, "LIST" ] ] ],
    "components": [ [ [ "eggs_bird", 4, "LIST" ], [ "egg_reptile", 4 ] ], [ [ "bread_sandwich", 4, "LIST" ] ], [ [ "butter", 1 ] ] ]
  },
  {
    "type": "recipe",
    "activity_level": "LIGHT_EXERCISE",
    "result": "hollandaise",
    "category": "CC_FOOD",
    "subcategory": "CSC_FOOD_SNACK",
    "skill_used": "cooking",
    "difficulty": 2,
    "proficiencies": [ { "proficiency": "prof_sauce" } ],
    "time": "30 m",
    "book_learn": [ [ "JofC", 4 ] ],
    "tools": [ [ [ "surface_heat", 25, "LIST" ] ] ],
    "components": [
      [ [ "eggs_bird", 3, "LIST" ], [ "egg_reptile", 3 ] ],
      [ [ "water_part", 1, "LIST" ] ],
      [ [ "lemon", 1 ] ],
      [ [ "salt", 1 ], [ "seasoning_salt", 1 ], [ "pepper", 1 ], [ "seasoning_montreal", 1 ] ],
      [ [ "butter", 2 ] ]
    ]
  },
  {
    "type": "recipe",
    "activity_level": "LIGHT_EXERCISE",
    "result": "potato_cakes",
    "category": "CC_FOOD",
    "subcategory": "CSC_FOOD_SNACK",
    "time": "40 m",
    "stack_size": 4,
    "book_learn": [ [ "JofC", 2 ] ],
    "tools": [ [ [ "surface_heat", 7, "LIST" ] ] ],
    "components": [
      [ [ "any_butter", 1, "LIST" ] ],
      [ [ "mashed_potatoes_part", 1, "LIST" ] ],
      [ [ "onion_part", 1, "LIST" ] ],
      [ [ "eggs_bird", 3, "LIST" ], [ "powder_eggs", 3 ], [ "egg_reptile", 3 ] ],
      [ [ "batter", 1, "LIST" ], [ "flour", 1 ], [ "asst_insects_flour", 1 ] ],
      [ [ "salt", 1 ], [ "seasoning_salt", 1 ], [ "pepper", 1 ], [ "seasoning_montreal", 1 ] ]
    ]
  }
]
