[
	{
    "type": "recipe",
    "activity_level": "LIGHT_EXERCISE",
    "result": "young_pickle_ginger",
    "category": "CC_FOOD",
    "subcategory": "CSC_FOOD_VEGGI",
    "difficulty": 1,
    "time": "30 m",
    "book_learn": [ ["JofC", 1] ],
    "tools": [ [ [ "surface_heat", 25, "LIST" ] ] ],
    "components": [
      [ [ "ginger_root", 1 ] ],
	    [ [ "vinegar", 1 ] ]
    ]
    },
    {
      "type": "recipe",
      "activity_level": "LIGHT_EXERCISE",
      "result": "rhchickpeas",
      "category": "CC_CHEM",
      "subcategory": "CSC_CHEM_OTHER",
      "skill_used": "cooking",
      "difficulty": 2,
      "time": "30 m",
      "autolearn": true,
      "tools": [ [ [ "surface_heat", 7, "LIST" ] ] ],
      "components": [
        [ [ "water", 1 ], [ "water_clean", 1 ] ],
        [ [ "jar_glass_sealed", 1 ] ],
        [ [ "chickpeas", 1 ] ]
      ]
    },
    {
      "type": "recipe",
      "activity_level": "LIGHT_EXERCISE",
      "result": "rhsplit_peas",
      "category": "CC_CHEM",
      "subcategory": "CSC_CHEM_OTHER",
      "skill_used": "cooking",
      "difficulty": 2,
      "time": "30 m",
      "autolearn": true,
      "tools": [ [ [ "surface_heat", 7, "LIST" ] ] ],
      "components": [
        [ [ "water", 1 ], [ "water_clean", 1 ] ],
        [ [ "jar_glass_sealed", 1 ] ],
        [ [ "split_peas", 1 ] ]
      ]
    },
    {
      "type": "recipe",
      "activity_level": "LIGHT_EXERCISE",
      "result": "rhlentils",
      "category": "CC_CHEM",
      "subcategory": "CSC_CHEM_OTHER",
      "skill_used": "cooking",
      "difficulty": 2,
      "time": "30 m",
      "autolearn": true,
      "tools": [ [ [ "surface_heat", 7, "LIST" ] ] ],
      "components": [
        [ [ "water", 1 ], [ "water_clean", 1 ] ],
        [ [ "jar_glass_sealed", 1 ] ],
        [ [ "lentils", 1 ] ]
      ]
    }
]