[
  {
    "type": "recipe",
    "activity_level": "LIGHT_EXERCISE",
    "result": "vinagrette",
    "category": "CC_FOOD",
    "subcategory": "CSC_FOOD_OTHER",
    "skill_used": "cooking",
    "difficulty": 2,
    "proficiencies": [ { "proficiency": "prof_sauce" } ],
    "time": "10 m",
    "stack_size": 4,
    "book_learn": [ [ "JofC", 1 ] ],
    "components": [
      [ [ "vinegar", 1 ] ],
      [ [ "pepper", 1 ] ],
      [ [ "any_butter_or_oil", 1, "LIST" ] ],
      [ [ "salt", 1 ], [ "seasoning_salt", 1 ], [ "seasoning_montreal", 1 ] ]
    ]
  },
  {
    "type": "recipe",
    "activity_level": "LIGHT_EXERCISE",
    "result": "B_vinagrette",
    "category": "CC_FOOD",
    "subcategory": "CSC_FOOD_OTHER",
    "skill_used": "cooking",
    "difficulty": 2,
    "proficiencies": [ { "proficiency": "prof_sauce" } ],
    "time": "10 m",
    "stack_size": 4,
    "book_learn": [ [ "JofC", 1 ] ],
    "components": [
      [ [ "vinegar", 1 ] ],
      [ [ "pepper", 1 ] ],
      [ [ "basil", 1 ] ],
      [ [ "any_butter_or_oil", 1, "LIST" ] ],
      [ [ "salt", 1 ], [ "seasoning_salt", 1 ], [ "seasoning_montreal", 1 ] ]
    ]
  },
  {
    "type": "recipe",
    "activity_level": "LIGHT_EXERCISE",
    "result": "H_vinagrette",
    "category": "CC_FOOD",
    "subcategory": "CSC_FOOD_OTHER",
    "skill_used": "cooking",
    "difficulty": 2,
    "proficiencies": [ { "proficiency": "prof_sauce" } ],
    "time": "10 m",
    "stack_size": 4,
    "book_learn": [ [ "JofC", 1 ] ],
    "components": [
      [ [ "vinegar", 1 ] ],
      [ [ "pepper", 1 ] ],
      [ [ "horseradish", 1 ] ],
      [ [ "any_butter_or_oil", 1, "LIST" ] ],
      [ [ "salt", 1 ], [ "seasoning_salt", 1 ], [ "seasoning_montreal", 1 ] ]
    ]
  },
  {
    "type": "recipe",
    "activity_level": "LIGHT_EXERCISE",
    "result": "P_vinagrette",
    "category": "CC_FOOD",
    "subcategory": "CSC_FOOD_OTHER",
    "skill_used": "cooking",
    "difficulty": 2,
    "proficiencies": [ { "proficiency": "prof_sauce" } ],
    "time": "10 m",
    "stack_size": 4,
    "book_learn": [ [ "JofC", 1 ] ],
    "components": [
      [ [ "vinegar", 1 ] ],
      [ [ "pepper", 1 ] ],
      [ [ "parmesan", 1 ] ],
      [ [ "peppercorn", 1 ] ],
      [ [ "dgarlic", 1 ] ],
      [ [ "donion", 1 ] ],
      [ [ "any_butter_or_oil", 1, "LIST" ] ],
      [ [ "salt", 1 ], [ "seasoning_salt", 1 ], [ "seasoning_montreal", 1 ] ]
    ]
  },
  {
    "type": "recipe",
    "activity_level": "LIGHT_EXERCISE",
    "result": "dressing_russian",
    "category": "CC_FOOD",
    "subcategory": "CSC_FOOD_OTHER",
    "skill_used": "cooking",
    "difficulty": 2,
    "proficiencies": [ { "proficiency": "prof_sauce" } ],
    "time": "10 m",
    "stack_size": 4,
    "book_learn": [ [ "JofC", 1 ] ],
    "components": [ [ [ "mayonnaise", 1 ] ], [ [ "horseradish", 1 ] ], [ [ "chilly-p", 1 ] ], [ [ "donion", 1 ] ] ]
  },
  {
    "type": "recipe",
    "activity_level": "LIGHT_EXERCISE",
    "result": "dressing_coleslaw",
    "category": "CC_FOOD",
    "subcategory": "CSC_FOOD_OTHER",
    "skill_used": "cooking",
    "difficulty": 2,
    "proficiencies": [ { "proficiency": "prof_sauce" } ],
    "time": "10 m",
    "stack_size": 4,
    "book_learn": [ [ "JofC", 1 ] ],
    "components": [ [ [ "mayonnaise", 1 ] ], [ [ "vinegar", 1 ] ], [ [ "sugar", 1 ] ] ]
  },
  {
    "type": "recipe",
    "activity_level": "LIGHT_EXERCISE",
    "result": "dressing_thousand",
    "category": "CC_FOOD",
    "subcategory": "CSC_FOOD_OTHER",
    "skill_used": "cooking",
    "difficulty": 2,
    "proficiencies": [ { "proficiency": "prof_sauce" } ],
    "time": "10 m",
    "stack_size": 4,
    "book_learn": [ [ "JofC", 2 ] ],
    "components": [
      [ [ "mayonnaise", 1 ] ],
      [ [ "horseradish", 1 ] ],
      [ [ "chilly-p", 1 ] ],
      [ [ "donion", 1 ] ],
      [ [ "chives", 1 ] ],
      [ [ "powder_eggs", 3 ], [ "eggs_bird", 3, "LIST" ], [ "egg_reptile", 3 ] ],
      [ [ "salt", 1 ], [ "seasoning_salt", 1 ] ],
      [ [ "pepper", 1 ] ]
    ]
  },
  {
    "type": "recipe",
    "activity_level": "LIGHT_EXERCISE",
    "result": "dressing_ranch",
    "category": "CC_FOOD",
    "subcategory": "CSC_FOOD_OTHER",
    "skill_used": "cooking",
    "difficulty": 2,
    "proficiencies": [ { "proficiency": "prof_sauce" } ],
    "time": "10 m",
    "stack_size": 4,
    "book_learn": [ [ "JofC", 2 ] ],
    "components": [
      [ [ "milk_standard", 1, "LIST" ] ],
      [ [ "dgarlic", 1 ] ],
      [ [ "lemon", 1 ] ],
      [ [ "cilantro", 1 ], [ "parsley", 1 ] ],
      [ [ "chives", 1 ] ],
      [ [ "salt", 1 ], [ "seasoning_salt", 1 ] ],
      [ [ "pepper", 1 ] ]
    ]
  },
  {
    "type": "recipe",
    "activity_level": "LIGHT_EXERCISE",
    "result": "HM_vinagrette",
    "category": "CC_FOOD",
    "subcategory": "CSC_FOOD_OTHER",
    "skill_used": "cooking",
    "difficulty": 2,
    "proficiencies": [ { "proficiency": "prof_sauce" } ],
    "time": "10 m",
    "stack_size": 4,
    "book_learn": [ [ "JofC", 1 ] ],
    "components": [
      [ [ "vinegar", 1 ] ],
      [ [ "pepper", 1 ] ],
      [ [ "honey_bottled", 1 ] ],
      [ [ "mustard", 1 ], [ "drymustard", 1 ] ],
      [ [ "any_butter_or_oil", 1, "LIST" ] ],
      [ [ "salt", 1 ], [ "seasoning_salt", 1 ], [ "seasoning_montreal", 1 ] ]
    ]
  },
  {
    "type": "recipe",
    "activity_level": "LIGHT_EXERCISE",
    "result": "taco_seasoning",
    "category": "CC_FOOD",
    "subcategory": "CSC_FOOD_OTHER",
    "time": "10 m",
    "stack_size": 4,
    "book_learn": [ [ "JofC", 1 ] ],
    "components": [
      [ [ "garlic", 1 ], [ "dgarlic", 1 ] ],
      [ [ "chilly-p", 1 ] ],
      [ [ "cumin", 1 ] ],
      [ [ "coriander", 1 ] ],
      [ [ "paprika", 1 ] ],
      [ [ "salt", 1 ] ]
    ]
  },
  {
    "type": "recipe",
    "activity_level": "LIGHT_EXERCISE",
    "result": "bouquet_garni",
    "category": "CC_FOOD",
    "subcategory": "CSC_FOOD_OTHER",
    "time": "10 m",
    "stack_size": 1,
    "book_learn": [ [ "JofC", 1 ] ],
    "components": [ [ [ "parsley", 1 ] ], [ [ "rag", 1 ] ], [ [ "thyme", 1 ] ], [ [ "bayleaf", 2 ] ], [ [ "rosemary", 1 ] ] ]
  },
  {
    "type": "recipe",
    "activity_level": "LIGHT_EXERCISE",
    "result": "bbsauce",
    "category": "CC_FOOD",
    "subcategory": "CSC_FOOD_OTHER",
    "time": "10 m",
    "stack_size": 1,
    "book_learn": [ [ "JofC", 1 ] ],
    "components": [
      [ [ "ketchup", 1 ] ],
      [ [ "wosauce", 1 ] ],
      [ [ "soysauce", 1 ] ],
      [ [ "sugar", 1 ] ],
      [ [ "mustard", 1 ] ],
      [ [ "ginger", 1 ] ],
      [ [ "garlic", 1 ] ],
      [ [ "onion", 1 ] ],
      [ [ "any_butter_or_oil", 1, "LIST" ] ],
      [ [ "chilly-p", 1 ] ]
    ]
  },
  {
    "type": "recipe",
    "activity_level": "LIGHT_EXERCISE",
    "result": "mushroom_ketchup",
    "category": "CC_FOOD",
    "subcategory": "CSC_FOOD_OTHER",
    "time": "10 m",
    "stack_size": 1,
    "book_learn": [ [ "JofC", 1 ] ],
    "components": [
      [ [ "mushroom_part", 5, "LIST" ] ],
      [ [ "salt", 2 ] ],
      [ [ "cayenne", 1 ] ],
      [ [ "allspice", 1 ] ],
      [ [ "ginger", 1 ] ],
      [ [ "mace_spice", 1 ] ]
    ]
  }
]
