[
  {
    "id": "microtx_fermenter_chor_dry",
    "type": "TOOL",
    "category": "tools",
    "name": { "str": "MicroTX fermentation cabinet(Dry Chorizo)" },
    "description": "Designed with sausage makers in mind, the MicroTX Fermentation Cabinet is designed to keep the humidity and temperature stable for long periods of time. It comes with a standard MicroTX socket for power.",
    "weight": "11339 g",
    "volume": "9 L",
    "longest_side": "40 cm",
    "price": 50,
    "price_postapoc": 250,
    "to_hit": -1,
     
    "material": [ "iron" ],
    "symbol": "%",
    "color": "white",
    "flags": [ "DURABLE_MELEE" ],
    "looks_like": "minifridge",
	"use_action": {
			  "target": "microtx_fermenter_chor_dry_1",
			  "msg": "You fill the fermenter with raw sausage and press the button. It will take about three weeks to be ready.",
			  "moves": 0,
			  "menu_text": "Press 'AUTOMATIC'.",
			  "type": "transform"
		}
  },
  {
    "id": "microtx_fermenter_chor_dry_1",
    "type": "TOOL",
    "name": { "str": "MicroTX fermentation cabinet(Dry Chorizo)" },
    "description": "Designed with sausage makers in mind, the MicroTX Fermentation Cabinet is designed to keep the humidity and temperature stable for long periods of time. It comes with a standard MicroTX socket for power. Presently running, drying chorizo.",
    "color": "white",
    "weight": "11339 g",
    "volume": "9 L",
    "price": 50,
    "price_postapoc": 250,
     
    "material": [ "iron" ],
    "symbol": "%",
    "flags": [ "DURABLE_MELEE" ],
    "looks_like": "minifridge",
	"use_action": {
		  "target": "microtx_fermenter_chor_dry_done",
		  "msg": "The machine beeps - you can now take your sausage out.",
		  "moves": 0,
		  "type": "delayed_transform",
		  "transform_age": 1555200,
		  "not_ready_msg": "The fermenter is still running."
		}
  },
  {
    "id": "microtx_fermenter_chor_dry_done",
    "type": "TOOL",
    "name": { "str": "MicroTX fermentation cabinet(Dry Chorizo, Done)" },
    "description": "Designed with sausage makers in mind, the MicroTX Fermentation Cabinet is designed to keep the humidity and temperature stable for long periods of time. It comes with a standard MicroTX socket for power. The process has completed - uncraft to harvest sausage.",
    "color": "white",
    "weight": "11339 g",
    "volume": "9 L",
    "price": 50,
    "price_postapoc": 250,
     
    "material": [ "iron" ],
    "symbol": "%",
    "flags": [ "DURABLE_MELEE" ],
    "looks_like": "minifridge"
  },
  {
    "type": "uncraft",
    "activity_level": "LIGHT_EXERCISE",
    "result": "microtx_fermenter_chor_dry_done",
    "time": "1 m",
    "components": [ 
		[ [ "microtx_fermenter", 1 ] ],
		[ [ "dry_cured_chorizo", 6 ] ]
	]
  },
  {
    "type": "recipe",
    "activity_level": "LIGHT_EXERCISE",
    "result": "microtx_fermenter_chor_dry",
    "category": "CC_FOOD",
    "subcategory": "CSC_FOOD_MEAT",
    "skill_used": "cooking",
    "difficulty": 3,
    "time": "30 m",
    "batch_time_factors": [ 50, 5 ],
    "book_learn": [ ["NyCE", 4] ],
    "qualities": [ { "id": "COOK", "level": 3 } ],
    "tools": [ [ [ "mtx_socket", 300, "LIST" ] ] ],
    "components": [
      [ [ "cured_chorizo_raw", 6 ] ],
      [ [ "microtx_fermenter", 1 ] ]
    ]
  },
  {
    "id": "microtx_fermenter_chor_oil",
    "type": "TOOL",
    "category": "tools",
    "name": { "str": "MicroTX fermentation cabinet(Oilbath Chorizo)" },
    "description": "Designed with sausage makers in mind, the MicroTX Fermentation Cabinet is designed to keep the humidity and temperature stable for long periods of time. It comes with a standard MicroTX socket for power.",
    "weight": "11339 g",
    "volume": "9 L",
    "longest_side": "40 cm",
    "price": 50,
    "price_postapoc": 250,
    "to_hit": -1,
     
    "material": [ "iron" ],
    "symbol": "%",
    "color": "white",
    "flags": [ "DURABLE_MELEE" ],
    "looks_like": "minifridge",
	"use_action": {
			  "target": "microtx_fermenter_chor_oil_1",
			  "msg": "You fill the fermenter with raw sausage and press the button. It will take about three weeks to be ready.",
			  "moves": 0,
			  "menu_text": "Press 'AUTOMATIC'.",
			  "type": "transform"
		}
  },
  {
    "id": "microtx_fermenter_chor_oil_1",
    "type": "TOOL",
    "name": { "str": "MicroTX fermentation cabinet(Oilbath Chorizo)" },
    "description": "Designed with sausage makers in mind, the MicroTX Fermentation Cabinet is designed to keep the humidity and temperature stable for long periods of time. It comes with a standard MicroTX socket for power. Presently running, drying chorizo.",
    "color": "white",
    "weight": "11339 g",
    "volume": "9 L",
    "price": 50,
    "price_postapoc": 250,
     
    "material": [ "iron" ],
    "symbol": "%",
    "flags": [ "DURABLE_MELEE" ],
    "looks_like": "minifridge",
	"use_action": {
		  "target": "microtx_fermenter_chor_oilbath_done",
		  "msg": "The machine beeps - you can now take your sausage out.",
		  "moves": 0,
		  "type": "delayed_transform",
		  "transform_age": 1555200,
		  "not_ready_msg": "The fermenter is still running."
		}
  },
  {
    "id": "microtx_fermenter_chor_oilbath_done",
    "type": "TOOL",
    "name": { "str": "MicroTX fermentation cabinet(Dry Chorizo, Done)" },
    "description": "Designed with sausage makers in mind, the MicroTX Fermentation Cabinet is designed to keep the humidity and temperature stable for long periods of time. It comes with a standard MicroTX socket for power. The process has completed - uncraft to harvest sausage.",
    "color": "white",
    "weight": "11339 g",
    "volume": "9 L",
    "price": 50,
    "price_postapoc": 250,
     
    "material": [ "iron" ],
    "symbol": "%",
    "flags": [ "DURABLE_MELEE" ],
    "looks_like": "minifridge"
  },
  {
    "type": "uncraft",
    "activity_level": "LIGHT_EXERCISE",
    "result": "microtx_fermenter_chor_oilbath_done",
    "time": "1 m",
    "components": [ 
		[ [ "microtx_fermenter", 1 ] ],
		[ [ "oil_cured_chorizo_uns", 1 ] ]
	]
  },
  {
    "type": "recipe",
    "activity_level": "LIGHT_EXERCISE",
    "result": "microtx_fermenter_chor_oil",
    "category": "CC_FOOD",
    "subcategory": "CSC_FOOD_MEAT",
    "skill_used": "cooking",
    "difficulty": 3,
    "time": "30 m",
    "batch_time_factors": [ 50, 5 ],
    "book_learn": [ ["NyCE", 4] ],
    "qualities": [ { "id": "COOK", "level": 3 } ],
    "tools": [ [ [ "mtx_socket", 300, "LIST" ] ] ],
    "components": [
      [ [ "cured_chorizo_raw", 6 ] ],
      [ [ "microtx_fermenter", 1 ] ]
    ]
  },
  {
    "id": "microtx_fermenter_jaunt_dry",
    "type": "TOOL",
    "category": "tools",
    "name": { "str": "MicroTX fermentation cabinet(Jauntauler Salami)" },
    "description": "Designed with sausage makers in mind, the MicroTX Fermentation Cabinet is designed to keep the humidity and temperature stable for long periods of time. It comes with a standard MicroTX socket for power.",
    "weight": "11339 g",
    "volume": "9 L",
    "longest_side": "40 cm",
    "price": 50,
    "price_postapoc": 250,
    "to_hit": -1,
     
    "material": [ "iron" ],
    "symbol": "%",
    "color": "white",
    "flags": [ "DURABLE_MELEE" ],
    "looks_like": "minifridge",
	"use_action": {
			  "target": "microtx_fermenter_jaunt_dry_1",
			  "msg": "You fill the fermenter with raw sausage and press the button. It will take about three weeks to be ready.",
			  "moves": 0,
			  "menu_text": "Press 'AUTOMATIC'.",
			  "type": "transform"
		}
  },
  {
    "id": "microtx_fermenter_jaunt_dry_1",
    "type": "TOOL",
    "name": { "str": "MicroTX fermentation cabinet(Jauntauler Salami)" },
    "description": "Designed with sausage makers in mind, the MicroTX Fermentation Cabinet is designed to keep the humidity and temperature stable for long periods of time. It comes with a standard MicroTX socket for power. Presently running, drying Jauntauler Salami.",
    "color": "white",
    "weight": "11339 g",
    "volume": "9 L",
    "price": 50,
    "price_postapoc": 250,
     
    "material": [ "iron" ],
    "symbol": "%",
    "flags": [ "DURABLE_MELEE" ],
    "looks_like": "minifridge",
	"use_action": {
		  "target": "microtx_fermenter_jaunt_dry_done",
		  "msg": "The machine beeps - you can now take your sausage out.",
		  "moves": 0,
		  "type": "delayed_transform",
		  "transform_age": 4665600,
		  "not_ready_msg": "The fermenter is still running."
		}
  },
  {
    "id": "microtx_fermenter_jaunt_dry_done",
    "type": "TOOL",
    "name": { "str": "MicroTX fermentation cabinet(Jauntauler Salami, Done)" },
    "description": "Designed with sausage makers in mind, the MicroTX Fermentation Cabinet is designed to keep the humidity and temperature stable for long periods of time. It comes with a standard MicroTX socket for power. The process has completed - uncraft to harvest sausage.",
    "color": "white",
    "weight": "11339 g",
    "volume": "9 L",
    "price": 50,
    "price_postapoc": 250,
     
    "material": [ "iron" ],
    "symbol": "%",
    "flags": [ "DURABLE_MELEE" ],
    "looks_like": "minifridge"
  },
  {
    "type": "uncraft",
    "activity_level": "LIGHT_EXERCISE",
    "result": "microtx_fermenter_jaunt_dry_done",
    "time": "1 m",
    "components": [ 
		[ [ "microtx_fermenter", 1 ] ],
		[ [ "jauntauler_salami_whole", 1 ] ]
	]
  },
  {
    "type": "recipe",
    "activity_level": "LIGHT_EXERCISE",
    "result": "microtx_fermenter_jaunt_dry",
    "category": "CC_FOOD",
    "subcategory": "CSC_FOOD_MEAT",
    "skill_used": "cooking",
    "difficulty": 3,
    "time": "30 m",
    "batch_time_factors": [ 50, 5 ],
    "book_learn": [ ["NyCE", 4] ],
    "qualities": [ { "id": "COOK", "level": 3 } ],
    "tools": [ [ [ "mtx_socket", 300, "LIST" ] ] ],
    "components": [
      [ [ "jauntauler_salami_raw", 6 ] ],
      [ [ "microtx_fermenter", 1 ] ]
    ]
  },
  {
    "type": "recipe",
    "activity_level": "LIGHT_EXERCISE",
    "result": "jauntauler_salami_sliced",
    "category": "CC_FOOD",
    "subcategory": "CSC_FOOD_MEAT",
    "skill_used": "cooking",
    "difficulty": 1,
    "time": "30 m",
    "autolearn": true,
    "qualities": [ { "id": "CUT", "level": 1 } ],
    "components": [ [ [ "jauntauler_salami_whole", 1 ] ] ]
  }
]
